[2022-06-07 21:59:54,588] {processor.py:153} INFO - Started process (PID=66) to work on /home/airflow/.local/lib/python3.7/site-packages/airflow/example_dags/example_python_operator.py
[2022-06-07 21:59:54,588] {processor.py:641} INFO - Processing file /home/airflow/.local/lib/python3.7/site-packages/airflow/example_dags/example_python_operator.py for tasks to queue
[2022-06-07 21:59:54,589] {logging_mixin.py:115} INFO - [2022-06-07 21:59:54,589] {dagbag.py:507} INFO - Filling up the DagBag from /home/airflow/.local/lib/python3.7/site-packages/airflow/example_dags/example_python_operator.py
[2022-06-07 21:59:54,604] {processor.py:651} INFO - DAG(s) dict_keys(['example_python_operator']) retrieved from /home/airflow/.local/lib/python3.7/site-packages/airflow/example_dags/example_python_operator.py
[2022-06-07 21:59:54,812] {logging_mixin.py:115} INFO - [2022-06-07 21:59:54,812] {manager.py:508} INFO - Created Permission View: can edit on DAG:example_python_operator
[2022-06-07 21:59:54,825] {logging_mixin.py:115} INFO - [2022-06-07 21:59:54,825] {manager.py:508} INFO - Created Permission View: can read on DAG:example_python_operator
[2022-06-07 21:59:54,835] {logging_mixin.py:115} INFO - [2022-06-07 21:59:54,835] {manager.py:508} INFO - Created Permission View: can delete on DAG:example_python_operator
[2022-06-07 21:59:54,836] {logging_mixin.py:115} INFO - [2022-06-07 21:59:54,836] {dag.py:2379} INFO - Sync 1 DAGs
[2022-06-07 21:59:54,847] {logging_mixin.py:115} INFO - [2022-06-07 21:59:54,846] {dag.py:2398} INFO - Creating ORM DAG for example_python_operator
[2022-06-07 21:59:54,863] {logging_mixin.py:115} INFO - [2022-06-07 21:59:54,863] {dag.py:2931} INFO - Setting next_dagrun for example_python_operator to None, run_after=None
[2022-06-07 21:59:54,882] {processor.py:161} INFO - Processing /home/airflow/.local/lib/python3.7/site-packages/airflow/example_dags/example_python_operator.py took 0.296 seconds
[2022-06-07 22:00:25,738] {processor.py:153} INFO - Started process (PID=128) to work on /home/airflow/.local/lib/python3.7/site-packages/airflow/example_dags/example_python_operator.py
[2022-06-07 22:00:25,739] {processor.py:641} INFO - Processing file /home/airflow/.local/lib/python3.7/site-packages/airflow/example_dags/example_python_operator.py for tasks to queue
[2022-06-07 22:00:25,739] {logging_mixin.py:115} INFO - [2022-06-07 22:00:25,739] {dagbag.py:507} INFO - Filling up the DagBag from /home/airflow/.local/lib/python3.7/site-packages/airflow/example_dags/example_python_operator.py
[2022-06-07 22:00:25,753] {processor.py:651} INFO - DAG(s) dict_keys(['example_python_operator']) retrieved from /home/airflow/.local/lib/python3.7/site-packages/airflow/example_dags/example_python_operator.py
[2022-06-07 22:00:25,773] {logging_mixin.py:115} INFO - [2022-06-07 22:00:25,773] {dag.py:2379} INFO - Sync 1 DAGs
[2022-06-07 22:00:25,886] {logging_mixin.py:115} INFO - [2022-06-07 22:00:25,886] {dag.py:2931} INFO - Setting next_dagrun for example_python_operator to None, run_after=None
[2022-06-07 22:00:25,899] {processor.py:161} INFO - Processing /home/airflow/.local/lib/python3.7/site-packages/airflow/example_dags/example_python_operator.py took 0.162 seconds
[2022-06-07 22:00:56,284] {processor.py:153} INFO - Started process (PID=181) to work on /home/airflow/.local/lib/python3.7/site-packages/airflow/example_dags/example_python_operator.py
[2022-06-07 22:00:56,284] {processor.py:641} INFO - Processing file /home/airflow/.local/lib/python3.7/site-packages/airflow/example_dags/example_python_operator.py for tasks to queue
[2022-06-07 22:00:56,285] {logging_mixin.py:115} INFO - [2022-06-07 22:00:56,285] {dagbag.py:507} INFO - Filling up the DagBag from /home/airflow/.local/lib/python3.7/site-packages/airflow/example_dags/example_python_operator.py
[2022-06-07 22:00:56,299] {processor.py:651} INFO - DAG(s) dict_keys(['example_python_operator']) retrieved from /home/airflow/.local/lib/python3.7/site-packages/airflow/example_dags/example_python_operator.py
[2022-06-07 22:00:56,319] {logging_mixin.py:115} INFO - [2022-06-07 22:00:56,319] {dag.py:2379} INFO - Sync 1 DAGs
[2022-06-07 22:00:56,426] {logging_mixin.py:115} INFO - [2022-06-07 22:00:56,426] {dag.py:2931} INFO - Setting next_dagrun for example_python_operator to None, run_after=None
[2022-06-07 22:00:56,437] {processor.py:161} INFO - Processing /home/airflow/.local/lib/python3.7/site-packages/airflow/example_dags/example_python_operator.py took 0.155 seconds
[2022-06-07 22:01:26,917] {processor.py:153} INFO - Started process (PID=243) to work on /home/airflow/.local/lib/python3.7/site-packages/airflow/example_dags/example_python_operator.py
[2022-06-07 22:01:26,918] {processor.py:641} INFO - Processing file /home/airflow/.local/lib/python3.7/site-packages/airflow/example_dags/example_python_operator.py for tasks to queue
[2022-06-07 22:01:26,918] {logging_mixin.py:115} INFO - [2022-06-07 22:01:26,918] {dagbag.py:507} INFO - Filling up the DagBag from /home/airflow/.local/lib/python3.7/site-packages/airflow/example_dags/example_python_operator.py
[2022-06-07 22:01:26,932] {processor.py:651} INFO - DAG(s) dict_keys(['example_python_operator']) retrieved from /home/airflow/.local/lib/python3.7/site-packages/airflow/example_dags/example_python_operator.py
[2022-06-07 22:01:26,951] {logging_mixin.py:115} INFO - [2022-06-07 22:01:26,951] {dag.py:2379} INFO - Sync 1 DAGs
[2022-06-07 22:01:27,054] {logging_mixin.py:115} INFO - [2022-06-07 22:01:27,054] {dag.py:2931} INFO - Setting next_dagrun for example_python_operator to None, run_after=None
[2022-06-07 22:01:27,066] {processor.py:161} INFO - Processing /home/airflow/.local/lib/python3.7/site-packages/airflow/example_dags/example_python_operator.py took 0.151 seconds
[2022-06-07 22:01:57,394] {processor.py:153} INFO - Started process (PID=305) to work on /home/airflow/.local/lib/python3.7/site-packages/airflow/example_dags/example_python_operator.py
[2022-06-07 22:01:57,395] {processor.py:641} INFO - Processing file /home/airflow/.local/lib/python3.7/site-packages/airflow/example_dags/example_python_operator.py for tasks to queue
[2022-06-07 22:01:57,395] {logging_mixin.py:115} INFO - [2022-06-07 22:01:57,395] {dagbag.py:507} INFO - Filling up the DagBag from /home/airflow/.local/lib/python3.7/site-packages/airflow/example_dags/example_python_operator.py
[2022-06-07 22:01:57,407] {processor.py:651} INFO - DAG(s) dict_keys(['example_python_operator']) retrieved from /home/airflow/.local/lib/python3.7/site-packages/airflow/example_dags/example_python_operator.py
[2022-06-07 22:01:57,425] {logging_mixin.py:115} INFO - [2022-06-07 22:01:57,425] {dag.py:2379} INFO - Sync 1 DAGs
[2022-06-07 22:01:57,532] {logging_mixin.py:115} INFO - [2022-06-07 22:01:57,532] {dag.py:2931} INFO - Setting next_dagrun for example_python_operator to None, run_after=None
[2022-06-07 22:01:57,542] {processor.py:161} INFO - Processing /home/airflow/.local/lib/python3.7/site-packages/airflow/example_dags/example_python_operator.py took 0.150 seconds
[2022-06-07 22:02:27,923] {processor.py:153} INFO - Started process (PID=368) to work on /home/airflow/.local/lib/python3.7/site-packages/airflow/example_dags/example_python_operator.py
[2022-06-07 22:02:27,923] {processor.py:641} INFO - Processing file /home/airflow/.local/lib/python3.7/site-packages/airflow/example_dags/example_python_operator.py for tasks to queue
[2022-06-07 22:02:27,924] {logging_mixin.py:115} INFO - [2022-06-07 22:02:27,924] {dagbag.py:507} INFO - Filling up the DagBag from /home/airflow/.local/lib/python3.7/site-packages/airflow/example_dags/example_python_operator.py
[2022-06-07 22:02:27,938] {processor.py:651} INFO - DAG(s) dict_keys(['example_python_operator']) retrieved from /home/airflow/.local/lib/python3.7/site-packages/airflow/example_dags/example_python_operator.py
[2022-06-07 22:02:27,960] {logging_mixin.py:115} INFO - [2022-06-07 22:02:27,960] {dag.py:2379} INFO - Sync 1 DAGs
[2022-06-07 22:02:28,082] {logging_mixin.py:115} INFO - [2022-06-07 22:02:28,082] {dag.py:2931} INFO - Setting next_dagrun for example_python_operator to None, run_after=None
[2022-06-07 22:02:28,094] {processor.py:161} INFO - Processing /home/airflow/.local/lib/python3.7/site-packages/airflow/example_dags/example_python_operator.py took 0.174 seconds
[2022-06-07 22:02:58,576] {processor.py:153} INFO - Started process (PID=422) to work on /home/airflow/.local/lib/python3.7/site-packages/airflow/example_dags/example_python_operator.py
[2022-06-07 22:02:58,576] {processor.py:641} INFO - Processing file /home/airflow/.local/lib/python3.7/site-packages/airflow/example_dags/example_python_operator.py for tasks to queue
[2022-06-07 22:02:58,576] {logging_mixin.py:115} INFO - [2022-06-07 22:02:58,576] {dagbag.py:507} INFO - Filling up the DagBag from /home/airflow/.local/lib/python3.7/site-packages/airflow/example_dags/example_python_operator.py
[2022-06-07 22:02:58,588] {processor.py:651} INFO - DAG(s) dict_keys(['example_python_operator']) retrieved from /home/airflow/.local/lib/python3.7/site-packages/airflow/example_dags/example_python_operator.py
[2022-06-07 22:02:58,606] {logging_mixin.py:115} INFO - [2022-06-07 22:02:58,606] {dag.py:2379} INFO - Sync 1 DAGs
[2022-06-07 22:02:58,702] {logging_mixin.py:115} INFO - [2022-06-07 22:02:58,702] {dag.py:2931} INFO - Setting next_dagrun for example_python_operator to None, run_after=None
[2022-06-07 22:02:58,712] {processor.py:161} INFO - Processing /home/airflow/.local/lib/python3.7/site-packages/airflow/example_dags/example_python_operator.py took 0.138 seconds
[2022-06-07 22:03:29,174] {processor.py:153} INFO - Started process (PID=484) to work on /home/airflow/.local/lib/python3.7/site-packages/airflow/example_dags/example_python_operator.py
[2022-06-07 22:03:29,175] {processor.py:641} INFO - Processing file /home/airflow/.local/lib/python3.7/site-packages/airflow/example_dags/example_python_operator.py for tasks to queue
[2022-06-07 22:03:29,175] {logging_mixin.py:115} INFO - [2022-06-07 22:03:29,175] {dagbag.py:507} INFO - Filling up the DagBag from /home/airflow/.local/lib/python3.7/site-packages/airflow/example_dags/example_python_operator.py
[2022-06-07 22:03:29,189] {processor.py:651} INFO - DAG(s) dict_keys(['example_python_operator']) retrieved from /home/airflow/.local/lib/python3.7/site-packages/airflow/example_dags/example_python_operator.py
[2022-06-07 22:03:29,211] {logging_mixin.py:115} INFO - [2022-06-07 22:03:29,211] {dag.py:2379} INFO - Sync 1 DAGs
[2022-06-07 22:03:29,316] {logging_mixin.py:115} INFO - [2022-06-07 22:03:29,316] {dag.py:2931} INFO - Setting next_dagrun for example_python_operator to None, run_after=None
[2022-06-07 22:03:29,325] {processor.py:161} INFO - Processing /home/airflow/.local/lib/python3.7/site-packages/airflow/example_dags/example_python_operator.py took 0.155 seconds
[2022-06-07 22:03:59,637] {processor.py:153} INFO - Started process (PID=548) to work on /home/airflow/.local/lib/python3.7/site-packages/airflow/example_dags/example_python_operator.py
[2022-06-07 22:03:59,637] {processor.py:641} INFO - Processing file /home/airflow/.local/lib/python3.7/site-packages/airflow/example_dags/example_python_operator.py for tasks to queue
[2022-06-07 22:03:59,638] {logging_mixin.py:115} INFO - [2022-06-07 22:03:59,638] {dagbag.py:507} INFO - Filling up the DagBag from /home/airflow/.local/lib/python3.7/site-packages/airflow/example_dags/example_python_operator.py
[2022-06-07 22:03:59,650] {processor.py:651} INFO - DAG(s) dict_keys(['example_python_operator']) retrieved from /home/airflow/.local/lib/python3.7/site-packages/airflow/example_dags/example_python_operator.py
[2022-06-07 22:03:59,667] {logging_mixin.py:115} INFO - [2022-06-07 22:03:59,667] {dag.py:2379} INFO - Sync 1 DAGs
[2022-06-07 22:03:59,772] {logging_mixin.py:115} INFO - [2022-06-07 22:03:59,772] {dag.py:2931} INFO - Setting next_dagrun for example_python_operator to None, run_after=None
[2022-06-07 22:03:59,781] {processor.py:161} INFO - Processing /home/airflow/.local/lib/python3.7/site-packages/airflow/example_dags/example_python_operator.py took 0.146 seconds
[2022-06-07 22:04:30,161] {processor.py:153} INFO - Started process (PID=601) to work on /home/airflow/.local/lib/python3.7/site-packages/airflow/example_dags/example_python_operator.py
[2022-06-07 22:04:30,161] {processor.py:641} INFO - Processing file /home/airflow/.local/lib/python3.7/site-packages/airflow/example_dags/example_python_operator.py for tasks to queue
[2022-06-07 22:04:30,161] {logging_mixin.py:115} INFO - [2022-06-07 22:04:30,161] {dagbag.py:507} INFO - Filling up the DagBag from /home/airflow/.local/lib/python3.7/site-packages/airflow/example_dags/example_python_operator.py
[2022-06-07 22:04:30,173] {processor.py:651} INFO - DAG(s) dict_keys(['example_python_operator']) retrieved from /home/airflow/.local/lib/python3.7/site-packages/airflow/example_dags/example_python_operator.py
[2022-06-07 22:04:30,191] {logging_mixin.py:115} INFO - [2022-06-07 22:04:30,191] {dag.py:2379} INFO - Sync 1 DAGs
[2022-06-07 22:04:30,300] {logging_mixin.py:115} INFO - [2022-06-07 22:04:30,300] {dag.py:2931} INFO - Setting next_dagrun for example_python_operator to None, run_after=None
[2022-06-07 22:04:30,314] {processor.py:161} INFO - Processing /home/airflow/.local/lib/python3.7/site-packages/airflow/example_dags/example_python_operator.py took 0.156 seconds
[2022-06-07 22:05:00,979] {processor.py:153} INFO - Started process (PID=663) to work on /home/airflow/.local/lib/python3.7/site-packages/airflow/example_dags/example_python_operator.py
[2022-06-07 22:05:00,980] {processor.py:641} INFO - Processing file /home/airflow/.local/lib/python3.7/site-packages/airflow/example_dags/example_python_operator.py for tasks to queue
[2022-06-07 22:05:00,980] {logging_mixin.py:115} INFO - [2022-06-07 22:05:00,980] {dagbag.py:507} INFO - Filling up the DagBag from /home/airflow/.local/lib/python3.7/site-packages/airflow/example_dags/example_python_operator.py
[2022-06-07 22:05:00,994] {processor.py:651} INFO - DAG(s) dict_keys(['example_python_operator']) retrieved from /home/airflow/.local/lib/python3.7/site-packages/airflow/example_dags/example_python_operator.py
[2022-06-07 22:05:01,012] {logging_mixin.py:115} INFO - [2022-06-07 22:05:01,012] {dag.py:2379} INFO - Sync 1 DAGs
[2022-06-07 22:05:01,109] {logging_mixin.py:115} INFO - [2022-06-07 22:05:01,109] {dag.py:2931} INFO - Setting next_dagrun for example_python_operator to None, run_after=None
[2022-06-07 22:05:01,119] {processor.py:161} INFO - Processing /home/airflow/.local/lib/python3.7/site-packages/airflow/example_dags/example_python_operator.py took 0.142 seconds
[2022-06-07 22:05:31,913] {processor.py:153} INFO - Started process (PID=725) to work on /home/airflow/.local/lib/python3.7/site-packages/airflow/example_dags/example_python_operator.py
[2022-06-07 22:05:31,915] {processor.py:641} INFO - Processing file /home/airflow/.local/lib/python3.7/site-packages/airflow/example_dags/example_python_operator.py for tasks to queue
[2022-06-07 22:05:31,915] {logging_mixin.py:115} INFO - [2022-06-07 22:05:31,915] {dagbag.py:507} INFO - Filling up the DagBag from /home/airflow/.local/lib/python3.7/site-packages/airflow/example_dags/example_python_operator.py
[2022-06-07 22:05:31,928] {processor.py:651} INFO - DAG(s) dict_keys(['example_python_operator']) retrieved from /home/airflow/.local/lib/python3.7/site-packages/airflow/example_dags/example_python_operator.py
[2022-06-07 22:05:31,949] {logging_mixin.py:115} INFO - [2022-06-07 22:05:31,949] {dag.py:2379} INFO - Sync 1 DAGs
[2022-06-07 22:05:32,050] {logging_mixin.py:115} INFO - [2022-06-07 22:05:32,050] {dag.py:2931} INFO - Setting next_dagrun for example_python_operator to None, run_after=None
[2022-06-07 22:05:32,060] {processor.py:161} INFO - Processing /home/airflow/.local/lib/python3.7/site-packages/airflow/example_dags/example_python_operator.py took 0.149 seconds
[2022-06-07 22:06:02,803] {processor.py:153} INFO - Started process (PID=787) to work on /home/airflow/.local/lib/python3.7/site-packages/airflow/example_dags/example_python_operator.py
[2022-06-07 22:06:02,803] {processor.py:641} INFO - Processing file /home/airflow/.local/lib/python3.7/site-packages/airflow/example_dags/example_python_operator.py for tasks to queue
[2022-06-07 22:06:02,804] {logging_mixin.py:115} INFO - [2022-06-07 22:06:02,804] {dagbag.py:507} INFO - Filling up the DagBag from /home/airflow/.local/lib/python3.7/site-packages/airflow/example_dags/example_python_operator.py
[2022-06-07 22:06:02,823] {processor.py:651} INFO - DAG(s) dict_keys(['example_python_operator']) retrieved from /home/airflow/.local/lib/python3.7/site-packages/airflow/example_dags/example_python_operator.py
[2022-06-07 22:06:02,843] {logging_mixin.py:115} INFO - [2022-06-07 22:06:02,843] {dag.py:2379} INFO - Sync 1 DAGs
[2022-06-07 22:06:02,971] {logging_mixin.py:115} INFO - [2022-06-07 22:06:02,971] {dag.py:2931} INFO - Setting next_dagrun for example_python_operator to None, run_after=None
[2022-06-07 22:06:02,983] {processor.py:161} INFO - Processing /home/airflow/.local/lib/python3.7/site-packages/airflow/example_dags/example_python_operator.py took 0.182 seconds
[2022-06-07 22:06:33,721] {processor.py:153} INFO - Started process (PID=840) to work on /home/airflow/.local/lib/python3.7/site-packages/airflow/example_dags/example_python_operator.py
[2022-06-07 22:06:33,721] {processor.py:641} INFO - Processing file /home/airflow/.local/lib/python3.7/site-packages/airflow/example_dags/example_python_operator.py for tasks to queue
[2022-06-07 22:06:33,721] {logging_mixin.py:115} INFO - [2022-06-07 22:06:33,721] {dagbag.py:507} INFO - Filling up the DagBag from /home/airflow/.local/lib/python3.7/site-packages/airflow/example_dags/example_python_operator.py
[2022-06-07 22:06:33,735] {processor.py:651} INFO - DAG(s) dict_keys(['example_python_operator']) retrieved from /home/airflow/.local/lib/python3.7/site-packages/airflow/example_dags/example_python_operator.py
[2022-06-07 22:06:33,754] {logging_mixin.py:115} INFO - [2022-06-07 22:06:33,753] {dag.py:2379} INFO - Sync 1 DAGs
[2022-06-07 22:06:33,858] {logging_mixin.py:115} INFO - [2022-06-07 22:06:33,858] {dag.py:2931} INFO - Setting next_dagrun for example_python_operator to None, run_after=None
[2022-06-07 22:06:33,868] {processor.py:161} INFO - Processing /home/airflow/.local/lib/python3.7/site-packages/airflow/example_dags/example_python_operator.py took 0.150 seconds
[2022-06-07 22:07:04,647] {processor.py:153} INFO - Started process (PID=902) to work on /home/airflow/.local/lib/python3.7/site-packages/airflow/example_dags/example_python_operator.py
[2022-06-07 22:07:04,647] {processor.py:641} INFO - Processing file /home/airflow/.local/lib/python3.7/site-packages/airflow/example_dags/example_python_operator.py for tasks to queue
[2022-06-07 22:07:04,648] {logging_mixin.py:115} INFO - [2022-06-07 22:07:04,648] {dagbag.py:507} INFO - Filling up the DagBag from /home/airflow/.local/lib/python3.7/site-packages/airflow/example_dags/example_python_operator.py
[2022-06-07 22:07:04,660] {processor.py:651} INFO - DAG(s) dict_keys(['example_python_operator']) retrieved from /home/airflow/.local/lib/python3.7/site-packages/airflow/example_dags/example_python_operator.py
[2022-06-07 22:07:04,677] {logging_mixin.py:115} INFO - [2022-06-07 22:07:04,677] {dag.py:2379} INFO - Sync 1 DAGs
[2022-06-07 22:07:04,776] {logging_mixin.py:115} INFO - [2022-06-07 22:07:04,776] {dag.py:2931} INFO - Setting next_dagrun for example_python_operator to None, run_after=None
[2022-06-07 22:07:04,786] {processor.py:161} INFO - Processing /home/airflow/.local/lib/python3.7/site-packages/airflow/example_dags/example_python_operator.py took 0.141 seconds
[2022-06-07 22:07:35,690] {processor.py:153} INFO - Started process (PID=964) to work on /home/airflow/.local/lib/python3.7/site-packages/airflow/example_dags/example_python_operator.py
[2022-06-07 22:07:35,691] {processor.py:641} INFO - Processing file /home/airflow/.local/lib/python3.7/site-packages/airflow/example_dags/example_python_operator.py for tasks to queue
[2022-06-07 22:07:35,691] {logging_mixin.py:115} INFO - [2022-06-07 22:07:35,691] {dagbag.py:507} INFO - Filling up the DagBag from /home/airflow/.local/lib/python3.7/site-packages/airflow/example_dags/example_python_operator.py
[2022-06-07 22:07:35,703] {processor.py:651} INFO - DAG(s) dict_keys(['example_python_operator']) retrieved from /home/airflow/.local/lib/python3.7/site-packages/airflow/example_dags/example_python_operator.py
[2022-06-07 22:07:35,720] {logging_mixin.py:115} INFO - [2022-06-07 22:07:35,720] {dag.py:2379} INFO - Sync 1 DAGs
[2022-06-07 22:07:35,821] {logging_mixin.py:115} INFO - [2022-06-07 22:07:35,821] {dag.py:2931} INFO - Setting next_dagrun for example_python_operator to None, run_after=None
[2022-06-07 22:07:35,850] {processor.py:161} INFO - Processing /home/airflow/.local/lib/python3.7/site-packages/airflow/example_dags/example_python_operator.py took 0.162 seconds
[2022-06-07 22:08:06,247] {processor.py:153} INFO - Started process (PID=1026) to work on /home/airflow/.local/lib/python3.7/site-packages/airflow/example_dags/example_python_operator.py
[2022-06-07 22:08:06,252] {processor.py:641} INFO - Processing file /home/airflow/.local/lib/python3.7/site-packages/airflow/example_dags/example_python_operator.py for tasks to queue
[2022-06-07 22:08:06,253] {logging_mixin.py:115} INFO - [2022-06-07 22:08:06,253] {dagbag.py:507} INFO - Filling up the DagBag from /home/airflow/.local/lib/python3.7/site-packages/airflow/example_dags/example_python_operator.py
[2022-06-07 22:08:06,265] {processor.py:651} INFO - DAG(s) dict_keys(['example_python_operator']) retrieved from /home/airflow/.local/lib/python3.7/site-packages/airflow/example_dags/example_python_operator.py
[2022-06-07 22:08:06,285] {logging_mixin.py:115} INFO - [2022-06-07 22:08:06,285] {dag.py:2379} INFO - Sync 1 DAGs
[2022-06-07 22:08:06,387] {logging_mixin.py:115} INFO - [2022-06-07 22:08:06,387] {dag.py:2931} INFO - Setting next_dagrun for example_python_operator to None, run_after=None
[2022-06-07 22:08:06,398] {processor.py:161} INFO - Processing /home/airflow/.local/lib/python3.7/site-packages/airflow/example_dags/example_python_operator.py took 0.153 seconds
[2022-06-07 22:08:36,455] {processor.py:153} INFO - Started process (PID=1079) to work on /home/airflow/.local/lib/python3.7/site-packages/airflow/example_dags/example_python_operator.py
[2022-06-07 22:08:36,455] {processor.py:641} INFO - Processing file /home/airflow/.local/lib/python3.7/site-packages/airflow/example_dags/example_python_operator.py for tasks to queue
[2022-06-07 22:08:36,456] {logging_mixin.py:115} INFO - [2022-06-07 22:08:36,456] {dagbag.py:507} INFO - Filling up the DagBag from /home/airflow/.local/lib/python3.7/site-packages/airflow/example_dags/example_python_operator.py
[2022-06-07 22:08:36,468] {processor.py:651} INFO - DAG(s) dict_keys(['example_python_operator']) retrieved from /home/airflow/.local/lib/python3.7/site-packages/airflow/example_dags/example_python_operator.py
[2022-06-07 22:08:36,486] {logging_mixin.py:115} INFO - [2022-06-07 22:08:36,486] {dag.py:2379} INFO - Sync 1 DAGs
[2022-06-07 22:08:36,587] {logging_mixin.py:115} INFO - [2022-06-07 22:08:36,587] {dag.py:2931} INFO - Setting next_dagrun for example_python_operator to None, run_after=None
[2022-06-07 22:08:36,598] {processor.py:161} INFO - Processing /home/airflow/.local/lib/python3.7/site-packages/airflow/example_dags/example_python_operator.py took 0.145 seconds
[2022-06-07 22:09:06,766] {processor.py:153} INFO - Started process (PID=1141) to work on /home/airflow/.local/lib/python3.7/site-packages/airflow/example_dags/example_python_operator.py
[2022-06-07 22:09:06,766] {processor.py:641} INFO - Processing file /home/airflow/.local/lib/python3.7/site-packages/airflow/example_dags/example_python_operator.py for tasks to queue
[2022-06-07 22:09:06,766] {logging_mixin.py:115} INFO - [2022-06-07 22:09:06,766] {dagbag.py:507} INFO - Filling up the DagBag from /home/airflow/.local/lib/python3.7/site-packages/airflow/example_dags/example_python_operator.py
[2022-06-07 22:09:06,778] {processor.py:651} INFO - DAG(s) dict_keys(['example_python_operator']) retrieved from /home/airflow/.local/lib/python3.7/site-packages/airflow/example_dags/example_python_operator.py
[2022-06-07 22:09:06,796] {logging_mixin.py:115} INFO - [2022-06-07 22:09:06,796] {dag.py:2379} INFO - Sync 1 DAGs
[2022-06-07 22:09:06,900] {logging_mixin.py:115} INFO - [2022-06-07 22:09:06,900] {dag.py:2931} INFO - Setting next_dagrun for example_python_operator to None, run_after=None
[2022-06-07 22:09:06,910] {processor.py:161} INFO - Processing /home/airflow/.local/lib/python3.7/site-packages/airflow/example_dags/example_python_operator.py took 0.147 seconds
[2022-06-07 22:09:37,034] {processor.py:153} INFO - Started process (PID=1203) to work on /home/airflow/.local/lib/python3.7/site-packages/airflow/example_dags/example_python_operator.py
[2022-06-07 22:09:37,034] {processor.py:641} INFO - Processing file /home/airflow/.local/lib/python3.7/site-packages/airflow/example_dags/example_python_operator.py for tasks to queue
[2022-06-07 22:09:37,035] {logging_mixin.py:115} INFO - [2022-06-07 22:09:37,035] {dagbag.py:507} INFO - Filling up the DagBag from /home/airflow/.local/lib/python3.7/site-packages/airflow/example_dags/example_python_operator.py
[2022-06-07 22:09:37,047] {processor.py:651} INFO - DAG(s) dict_keys(['example_python_operator']) retrieved from /home/airflow/.local/lib/python3.7/site-packages/airflow/example_dags/example_python_operator.py
[2022-06-07 22:09:37,065] {logging_mixin.py:115} INFO - [2022-06-07 22:09:37,065] {dag.py:2379} INFO - Sync 1 DAGs
[2022-06-07 22:09:37,164] {logging_mixin.py:115} INFO - [2022-06-07 22:09:37,163] {dag.py:2931} INFO - Setting next_dagrun for example_python_operator to None, run_after=None
[2022-06-07 22:09:37,178] {processor.py:161} INFO - Processing /home/airflow/.local/lib/python3.7/site-packages/airflow/example_dags/example_python_operator.py took 0.145 seconds
[2022-06-07 22:10:07,374] {processor.py:153} INFO - Started process (PID=1265) to work on /home/airflow/.local/lib/python3.7/site-packages/airflow/example_dags/example_python_operator.py
[2022-06-07 22:10:07,374] {processor.py:641} INFO - Processing file /home/airflow/.local/lib/python3.7/site-packages/airflow/example_dags/example_python_operator.py for tasks to queue
[2022-06-07 22:10:07,375] {logging_mixin.py:115} INFO - [2022-06-07 22:10:07,375] {dagbag.py:507} INFO - Filling up the DagBag from /home/airflow/.local/lib/python3.7/site-packages/airflow/example_dags/example_python_operator.py
[2022-06-07 22:10:07,388] {processor.py:651} INFO - DAG(s) dict_keys(['example_python_operator']) retrieved from /home/airflow/.local/lib/python3.7/site-packages/airflow/example_dags/example_python_operator.py
[2022-06-07 22:10:07,407] {logging_mixin.py:115} INFO - [2022-06-07 22:10:07,407] {dag.py:2379} INFO - Sync 1 DAGs
[2022-06-07 22:10:07,517] {logging_mixin.py:115} INFO - [2022-06-07 22:10:07,517] {dag.py:2931} INFO - Setting next_dagrun for example_python_operator to None, run_after=None
[2022-06-07 22:10:07,529] {processor.py:161} INFO - Processing /home/airflow/.local/lib/python3.7/site-packages/airflow/example_dags/example_python_operator.py took 0.157 seconds
[2022-06-07 22:10:37,780] {processor.py:153} INFO - Started process (PID=1320) to work on /home/airflow/.local/lib/python3.7/site-packages/airflow/example_dags/example_python_operator.py
[2022-06-07 22:10:37,780] {processor.py:641} INFO - Processing file /home/airflow/.local/lib/python3.7/site-packages/airflow/example_dags/example_python_operator.py for tasks to queue
[2022-06-07 22:10:37,781] {logging_mixin.py:115} INFO - [2022-06-07 22:10:37,781] {dagbag.py:507} INFO - Filling up the DagBag from /home/airflow/.local/lib/python3.7/site-packages/airflow/example_dags/example_python_operator.py
[2022-06-07 22:10:37,793] {processor.py:651} INFO - DAG(s) dict_keys(['example_python_operator']) retrieved from /home/airflow/.local/lib/python3.7/site-packages/airflow/example_dags/example_python_operator.py
[2022-06-07 22:10:37,810] {logging_mixin.py:115} INFO - [2022-06-07 22:10:37,810] {dag.py:2379} INFO - Sync 1 DAGs
[2022-06-07 22:10:37,909] {logging_mixin.py:115} INFO - [2022-06-07 22:10:37,909] {dag.py:2931} INFO - Setting next_dagrun for example_python_operator to None, run_after=None
[2022-06-07 22:10:37,931] {processor.py:161} INFO - Processing /home/airflow/.local/lib/python3.7/site-packages/airflow/example_dags/example_python_operator.py took 0.153 seconds
[2022-06-07 22:11:08,187] {processor.py:153} INFO - Started process (PID=1383) to work on /home/airflow/.local/lib/python3.7/site-packages/airflow/example_dags/example_python_operator.py
[2022-06-07 22:11:08,187] {processor.py:641} INFO - Processing file /home/airflow/.local/lib/python3.7/site-packages/airflow/example_dags/example_python_operator.py for tasks to queue
[2022-06-07 22:11:08,188] {logging_mixin.py:115} INFO - [2022-06-07 22:11:08,188] {dagbag.py:507} INFO - Filling up the DagBag from /home/airflow/.local/lib/python3.7/site-packages/airflow/example_dags/example_python_operator.py
[2022-06-07 22:11:08,202] {processor.py:651} INFO - DAG(s) dict_keys(['example_python_operator']) retrieved from /home/airflow/.local/lib/python3.7/site-packages/airflow/example_dags/example_python_operator.py
[2022-06-07 22:11:08,220] {logging_mixin.py:115} INFO - [2022-06-07 22:11:08,220] {dag.py:2379} INFO - Sync 1 DAGs
[2022-06-07 22:11:08,328] {logging_mixin.py:115} INFO - [2022-06-07 22:11:08,328] {dag.py:2931} INFO - Setting next_dagrun for example_python_operator to None, run_after=None
[2022-06-07 22:11:08,340] {processor.py:161} INFO - Processing /home/airflow/.local/lib/python3.7/site-packages/airflow/example_dags/example_python_operator.py took 0.155 seconds
[2022-06-07 22:11:38,883] {processor.py:153} INFO - Started process (PID=1447) to work on /home/airflow/.local/lib/python3.7/site-packages/airflow/example_dags/example_python_operator.py
[2022-06-07 22:11:38,883] {processor.py:641} INFO - Processing file /home/airflow/.local/lib/python3.7/site-packages/airflow/example_dags/example_python_operator.py for tasks to queue
[2022-06-07 22:11:38,883] {logging_mixin.py:115} INFO - [2022-06-07 22:11:38,883] {dagbag.py:507} INFO - Filling up the DagBag from /home/airflow/.local/lib/python3.7/site-packages/airflow/example_dags/example_python_operator.py
[2022-06-07 22:11:38,895] {processor.py:651} INFO - DAG(s) dict_keys(['example_python_operator']) retrieved from /home/airflow/.local/lib/python3.7/site-packages/airflow/example_dags/example_python_operator.py
[2022-06-07 22:11:38,913] {logging_mixin.py:115} INFO - [2022-06-07 22:11:38,913] {dag.py:2379} INFO - Sync 1 DAGs
[2022-06-07 22:11:39,017] {logging_mixin.py:115} INFO - [2022-06-07 22:11:39,017] {dag.py:2931} INFO - Setting next_dagrun for example_python_operator to None, run_after=None
[2022-06-07 22:11:39,027] {processor.py:161} INFO - Processing /home/airflow/.local/lib/python3.7/site-packages/airflow/example_dags/example_python_operator.py took 0.146 seconds
[2022-06-07 22:12:09,819] {processor.py:153} INFO - Started process (PID=1500) to work on /home/airflow/.local/lib/python3.7/site-packages/airflow/example_dags/example_python_operator.py
[2022-06-07 22:12:09,820] {processor.py:641} INFO - Processing file /home/airflow/.local/lib/python3.7/site-packages/airflow/example_dags/example_python_operator.py for tasks to queue
[2022-06-07 22:12:09,820] {logging_mixin.py:115} INFO - [2022-06-07 22:12:09,820] {dagbag.py:507} INFO - Filling up the DagBag from /home/airflow/.local/lib/python3.7/site-packages/airflow/example_dags/example_python_operator.py
[2022-06-07 22:12:09,835] {processor.py:651} INFO - DAG(s) dict_keys(['example_python_operator']) retrieved from /home/airflow/.local/lib/python3.7/site-packages/airflow/example_dags/example_python_operator.py
[2022-06-07 22:12:09,853] {logging_mixin.py:115} INFO - [2022-06-07 22:12:09,853] {dag.py:2379} INFO - Sync 1 DAGs
[2022-06-07 22:12:09,956] {logging_mixin.py:115} INFO - [2022-06-07 22:12:09,956] {dag.py:2931} INFO - Setting next_dagrun for example_python_operator to None, run_after=None
[2022-06-07 22:12:09,965] {processor.py:161} INFO - Processing /home/airflow/.local/lib/python3.7/site-packages/airflow/example_dags/example_python_operator.py took 0.148 seconds
[2022-06-07 22:12:40,282] {processor.py:153} INFO - Started process (PID=1562) to work on /home/airflow/.local/lib/python3.7/site-packages/airflow/example_dags/example_python_operator.py
[2022-06-07 22:12:40,283] {processor.py:641} INFO - Processing file /home/airflow/.local/lib/python3.7/site-packages/airflow/example_dags/example_python_operator.py for tasks to queue
[2022-06-07 22:12:40,283] {logging_mixin.py:115} INFO - [2022-06-07 22:12:40,283] {dagbag.py:507} INFO - Filling up the DagBag from /home/airflow/.local/lib/python3.7/site-packages/airflow/example_dags/example_python_operator.py
[2022-06-07 22:12:40,305] {processor.py:651} INFO - DAG(s) dict_keys(['example_python_operator']) retrieved from /home/airflow/.local/lib/python3.7/site-packages/airflow/example_dags/example_python_operator.py
[2022-06-07 22:12:40,325] {logging_mixin.py:115} INFO - [2022-06-07 22:12:40,325] {dag.py:2379} INFO - Sync 1 DAGs
[2022-06-07 22:12:40,428] {logging_mixin.py:115} INFO - [2022-06-07 22:12:40,428] {dag.py:2931} INFO - Setting next_dagrun for example_python_operator to None, run_after=None
[2022-06-07 22:12:40,438] {processor.py:161} INFO - Processing /home/airflow/.local/lib/python3.7/site-packages/airflow/example_dags/example_python_operator.py took 0.160 seconds
[2022-06-07 22:13:10,669] {processor.py:153} INFO - Started process (PID=1625) to work on /home/airflow/.local/lib/python3.7/site-packages/airflow/example_dags/example_python_operator.py
[2022-06-07 22:13:10,670] {processor.py:641} INFO - Processing file /home/airflow/.local/lib/python3.7/site-packages/airflow/example_dags/example_python_operator.py for tasks to queue
[2022-06-07 22:13:10,670] {logging_mixin.py:115} INFO - [2022-06-07 22:13:10,670] {dagbag.py:507} INFO - Filling up the DagBag from /home/airflow/.local/lib/python3.7/site-packages/airflow/example_dags/example_python_operator.py
[2022-06-07 22:13:10,684] {processor.py:651} INFO - DAG(s) dict_keys(['example_python_operator']) retrieved from /home/airflow/.local/lib/python3.7/site-packages/airflow/example_dags/example_python_operator.py
[2022-06-07 22:13:10,701] {logging_mixin.py:115} INFO - [2022-06-07 22:13:10,701] {dag.py:2379} INFO - Sync 1 DAGs
[2022-06-07 22:13:10,808] {logging_mixin.py:115} INFO - [2022-06-07 22:13:10,808] {dag.py:2931} INFO - Setting next_dagrun for example_python_operator to None, run_after=None
[2022-06-07 22:13:10,818] {processor.py:161} INFO - Processing /home/airflow/.local/lib/python3.7/site-packages/airflow/example_dags/example_python_operator.py took 0.151 seconds
[2022-06-07 22:13:41,150] {processor.py:153} INFO - Started process (PID=1687) to work on /home/airflow/.local/lib/python3.7/site-packages/airflow/example_dags/example_python_operator.py
[2022-06-07 22:13:41,153] {processor.py:641} INFO - Processing file /home/airflow/.local/lib/python3.7/site-packages/airflow/example_dags/example_python_operator.py for tasks to queue
[2022-06-07 22:13:41,153] {logging_mixin.py:115} INFO - [2022-06-07 22:13:41,153] {dagbag.py:507} INFO - Filling up the DagBag from /home/airflow/.local/lib/python3.7/site-packages/airflow/example_dags/example_python_operator.py
[2022-06-07 22:13:41,165] {processor.py:651} INFO - DAG(s) dict_keys(['example_python_operator']) retrieved from /home/airflow/.local/lib/python3.7/site-packages/airflow/example_dags/example_python_operator.py
[2022-06-07 22:13:41,182] {logging_mixin.py:115} INFO - [2022-06-07 22:13:41,182] {dag.py:2379} INFO - Sync 1 DAGs
[2022-06-07 22:13:41,277] {logging_mixin.py:115} INFO - [2022-06-07 22:13:41,277] {dag.py:2931} INFO - Setting next_dagrun for example_python_operator to None, run_after=None
[2022-06-07 22:13:41,307] {processor.py:161} INFO - Processing /home/airflow/.local/lib/python3.7/site-packages/airflow/example_dags/example_python_operator.py took 0.159 seconds
[2022-06-07 22:14:11,804] {processor.py:153} INFO - Started process (PID=1740) to work on /home/airflow/.local/lib/python3.7/site-packages/airflow/example_dags/example_python_operator.py
[2022-06-07 22:14:11,805] {processor.py:641} INFO - Processing file /home/airflow/.local/lib/python3.7/site-packages/airflow/example_dags/example_python_operator.py for tasks to queue
[2022-06-07 22:14:11,805] {logging_mixin.py:115} INFO - [2022-06-07 22:14:11,805] {dagbag.py:507} INFO - Filling up the DagBag from /home/airflow/.local/lib/python3.7/site-packages/airflow/example_dags/example_python_operator.py
[2022-06-07 22:14:11,822] {processor.py:651} INFO - DAG(s) dict_keys(['example_python_operator']) retrieved from /home/airflow/.local/lib/python3.7/site-packages/airflow/example_dags/example_python_operator.py
[2022-06-07 22:14:11,844] {logging_mixin.py:115} INFO - [2022-06-07 22:14:11,844] {dag.py:2379} INFO - Sync 1 DAGs
[2022-06-07 22:14:12,003] {logging_mixin.py:115} INFO - [2022-06-07 22:14:12,003] {dag.py:2931} INFO - Setting next_dagrun for example_python_operator to None, run_after=None
[2022-06-07 22:14:12,016] {processor.py:161} INFO - Processing /home/airflow/.local/lib/python3.7/site-packages/airflow/example_dags/example_python_operator.py took 0.215 seconds
[2022-06-07 22:14:42,288] {processor.py:153} INFO - Started process (PID=1802) to work on /home/airflow/.local/lib/python3.7/site-packages/airflow/example_dags/example_python_operator.py
[2022-06-07 22:14:42,288] {processor.py:641} INFO - Processing file /home/airflow/.local/lib/python3.7/site-packages/airflow/example_dags/example_python_operator.py for tasks to queue
[2022-06-07 22:14:42,289] {logging_mixin.py:115} INFO - [2022-06-07 22:14:42,289] {dagbag.py:507} INFO - Filling up the DagBag from /home/airflow/.local/lib/python3.7/site-packages/airflow/example_dags/example_python_operator.py
[2022-06-07 22:14:42,301] {processor.py:651} INFO - DAG(s) dict_keys(['example_python_operator']) retrieved from /home/airflow/.local/lib/python3.7/site-packages/airflow/example_dags/example_python_operator.py
[2022-06-07 22:14:42,319] {logging_mixin.py:115} INFO - [2022-06-07 22:14:42,319] {dag.py:2379} INFO - Sync 1 DAGs
[2022-06-07 22:14:42,421] {logging_mixin.py:115} INFO - [2022-06-07 22:14:42,421] {dag.py:2931} INFO - Setting next_dagrun for example_python_operator to None, run_after=None
[2022-06-07 22:14:42,432] {processor.py:161} INFO - Processing /home/airflow/.local/lib/python3.7/site-packages/airflow/example_dags/example_python_operator.py took 0.147 seconds
[2022-06-07 22:15:12,914] {processor.py:153} INFO - Started process (PID=1864) to work on /home/airflow/.local/lib/python3.7/site-packages/airflow/example_dags/example_python_operator.py
[2022-06-07 22:15:12,914] {processor.py:641} INFO - Processing file /home/airflow/.local/lib/python3.7/site-packages/airflow/example_dags/example_python_operator.py for tasks to queue
[2022-06-07 22:15:12,915] {logging_mixin.py:115} INFO - [2022-06-07 22:15:12,915] {dagbag.py:507} INFO - Filling up the DagBag from /home/airflow/.local/lib/python3.7/site-packages/airflow/example_dags/example_python_operator.py
[2022-06-07 22:15:12,927] {processor.py:651} INFO - DAG(s) dict_keys(['example_python_operator']) retrieved from /home/airflow/.local/lib/python3.7/site-packages/airflow/example_dags/example_python_operator.py
[2022-06-07 22:15:12,949] {logging_mixin.py:115} INFO - [2022-06-07 22:15:12,949] {dag.py:2379} INFO - Sync 1 DAGs
[2022-06-07 22:15:13,052] {logging_mixin.py:115} INFO - [2022-06-07 22:15:13,052] {dag.py:2931} INFO - Setting next_dagrun for example_python_operator to None, run_after=None
[2022-06-07 22:15:13,062] {processor.py:161} INFO - Processing /home/airflow/.local/lib/python3.7/site-packages/airflow/example_dags/example_python_operator.py took 0.151 seconds
[2022-06-07 22:15:43,381] {processor.py:153} INFO - Started process (PID=1918) to work on /home/airflow/.local/lib/python3.7/site-packages/airflow/example_dags/example_python_operator.py
[2022-06-07 22:15:43,382] {processor.py:641} INFO - Processing file /home/airflow/.local/lib/python3.7/site-packages/airflow/example_dags/example_python_operator.py for tasks to queue
[2022-06-07 22:15:43,382] {logging_mixin.py:115} INFO - [2022-06-07 22:15:43,382] {dagbag.py:507} INFO - Filling up the DagBag from /home/airflow/.local/lib/python3.7/site-packages/airflow/example_dags/example_python_operator.py
[2022-06-07 22:15:43,395] {processor.py:651} INFO - DAG(s) dict_keys(['example_python_operator']) retrieved from /home/airflow/.local/lib/python3.7/site-packages/airflow/example_dags/example_python_operator.py
[2022-06-07 22:15:43,418] {logging_mixin.py:115} INFO - [2022-06-07 22:15:43,418] {dag.py:2379} INFO - Sync 1 DAGs
[2022-06-07 22:15:43,532] {logging_mixin.py:115} INFO - [2022-06-07 22:15:43,532] {dag.py:2931} INFO - Setting next_dagrun for example_python_operator to None, run_after=None
[2022-06-07 22:15:43,555] {processor.py:161} INFO - Processing /home/airflow/.local/lib/python3.7/site-packages/airflow/example_dags/example_python_operator.py took 0.176 seconds
[2022-06-07 22:16:13,660] {processor.py:153} INFO - Started process (PID=1980) to work on /home/airflow/.local/lib/python3.7/site-packages/airflow/example_dags/example_python_operator.py
[2022-06-07 22:16:13,660] {processor.py:641} INFO - Processing file /home/airflow/.local/lib/python3.7/site-packages/airflow/example_dags/example_python_operator.py for tasks to queue
[2022-06-07 22:16:13,660] {logging_mixin.py:115} INFO - [2022-06-07 22:16:13,660] {dagbag.py:507} INFO - Filling up the DagBag from /home/airflow/.local/lib/python3.7/site-packages/airflow/example_dags/example_python_operator.py
[2022-06-07 22:16:13,673] {processor.py:651} INFO - DAG(s) dict_keys(['example_python_operator']) retrieved from /home/airflow/.local/lib/python3.7/site-packages/airflow/example_dags/example_python_operator.py
[2022-06-07 22:16:13,692] {logging_mixin.py:115} INFO - [2022-06-07 22:16:13,692] {dag.py:2379} INFO - Sync 1 DAGs
[2022-06-07 22:16:13,794] {logging_mixin.py:115} INFO - [2022-06-07 22:16:13,794] {dag.py:2931} INFO - Setting next_dagrun for example_python_operator to None, run_after=None
[2022-06-07 22:16:13,808] {processor.py:161} INFO - Processing /home/airflow/.local/lib/python3.7/site-packages/airflow/example_dags/example_python_operator.py took 0.151 seconds
[2022-06-07 22:16:43,957] {processor.py:153} INFO - Started process (PID=2041) to work on /home/airflow/.local/lib/python3.7/site-packages/airflow/example_dags/example_python_operator.py
[2022-06-07 22:16:43,958] {processor.py:641} INFO - Processing file /home/airflow/.local/lib/python3.7/site-packages/airflow/example_dags/example_python_operator.py for tasks to queue
[2022-06-07 22:16:43,958] {logging_mixin.py:115} INFO - [2022-06-07 22:16:43,958] {dagbag.py:507} INFO - Filling up the DagBag from /home/airflow/.local/lib/python3.7/site-packages/airflow/example_dags/example_python_operator.py
[2022-06-07 22:16:43,972] {processor.py:651} INFO - DAG(s) dict_keys(['example_python_operator']) retrieved from /home/airflow/.local/lib/python3.7/site-packages/airflow/example_dags/example_python_operator.py
[2022-06-07 22:16:43,995] {logging_mixin.py:115} INFO - [2022-06-07 22:16:43,995] {dag.py:2379} INFO - Sync 1 DAGs
[2022-06-07 22:16:44,101] {logging_mixin.py:115} INFO - [2022-06-07 22:16:44,101] {dag.py:2931} INFO - Setting next_dagrun for example_python_operator to None, run_after=None
[2022-06-07 22:16:44,110] {processor.py:161} INFO - Processing /home/airflow/.local/lib/python3.7/site-packages/airflow/example_dags/example_python_operator.py took 0.155 seconds
[2022-06-07 22:17:15,148] {processor.py:153} INFO - Started process (PID=2103) to work on /home/airflow/.local/lib/python3.7/site-packages/airflow/example_dags/example_python_operator.py
[2022-06-07 22:17:15,148] {processor.py:641} INFO - Processing file /home/airflow/.local/lib/python3.7/site-packages/airflow/example_dags/example_python_operator.py for tasks to queue
[2022-06-07 22:17:15,148] {logging_mixin.py:115} INFO - [2022-06-07 22:17:15,148] {dagbag.py:507} INFO - Filling up the DagBag from /home/airflow/.local/lib/python3.7/site-packages/airflow/example_dags/example_python_operator.py
[2022-06-07 22:17:15,162] {processor.py:651} INFO - DAG(s) dict_keys(['example_python_operator']) retrieved from /home/airflow/.local/lib/python3.7/site-packages/airflow/example_dags/example_python_operator.py
[2022-06-07 22:17:15,190] {logging_mixin.py:115} INFO - [2022-06-07 22:17:15,190] {dag.py:2379} INFO - Sync 1 DAGs
[2022-06-07 22:17:15,314] {logging_mixin.py:115} INFO - [2022-06-07 22:17:15,314] {dag.py:2931} INFO - Setting next_dagrun for example_python_operator to None, run_after=None
[2022-06-07 22:17:15,325] {processor.py:161} INFO - Processing /home/airflow/.local/lib/python3.7/site-packages/airflow/example_dags/example_python_operator.py took 0.180 seconds
[2022-06-07 22:17:45,488] {processor.py:153} INFO - Started process (PID=2156) to work on /home/airflow/.local/lib/python3.7/site-packages/airflow/example_dags/example_python_operator.py
[2022-06-07 22:17:45,489] {processor.py:641} INFO - Processing file /home/airflow/.local/lib/python3.7/site-packages/airflow/example_dags/example_python_operator.py for tasks to queue
[2022-06-07 22:17:45,489] {logging_mixin.py:115} INFO - [2022-06-07 22:17:45,489] {dagbag.py:507} INFO - Filling up the DagBag from /home/airflow/.local/lib/python3.7/site-packages/airflow/example_dags/example_python_operator.py
[2022-06-07 22:17:45,502] {processor.py:651} INFO - DAG(s) dict_keys(['example_python_operator']) retrieved from /home/airflow/.local/lib/python3.7/site-packages/airflow/example_dags/example_python_operator.py
[2022-06-07 22:17:45,522] {logging_mixin.py:115} INFO - [2022-06-07 22:17:45,522] {dag.py:2379} INFO - Sync 1 DAGs
[2022-06-07 22:17:45,630] {logging_mixin.py:115} INFO - [2022-06-07 22:17:45,630] {dag.py:2931} INFO - Setting next_dagrun for example_python_operator to None, run_after=None
[2022-06-07 22:17:45,641] {processor.py:161} INFO - Processing /home/airflow/.local/lib/python3.7/site-packages/airflow/example_dags/example_python_operator.py took 0.155 seconds
[2022-06-07 22:18:15,765] {processor.py:153} INFO - Started process (PID=2219) to work on /home/airflow/.local/lib/python3.7/site-packages/airflow/example_dags/example_python_operator.py
[2022-06-07 22:18:15,766] {processor.py:641} INFO - Processing file /home/airflow/.local/lib/python3.7/site-packages/airflow/example_dags/example_python_operator.py for tasks to queue
[2022-06-07 22:18:15,766] {logging_mixin.py:115} INFO - [2022-06-07 22:18:15,766] {dagbag.py:507} INFO - Filling up the DagBag from /home/airflow/.local/lib/python3.7/site-packages/airflow/example_dags/example_python_operator.py
[2022-06-07 22:18:15,778] {processor.py:651} INFO - DAG(s) dict_keys(['example_python_operator']) retrieved from /home/airflow/.local/lib/python3.7/site-packages/airflow/example_dags/example_python_operator.py
[2022-06-07 22:18:15,797] {logging_mixin.py:115} INFO - [2022-06-07 22:18:15,797] {dag.py:2379} INFO - Sync 1 DAGs
[2022-06-07 22:18:15,893] {logging_mixin.py:115} INFO - [2022-06-07 22:18:15,893] {dag.py:2931} INFO - Setting next_dagrun for example_python_operator to None, run_after=None
[2022-06-07 22:18:15,907] {processor.py:161} INFO - Processing /home/airflow/.local/lib/python3.7/site-packages/airflow/example_dags/example_python_operator.py took 0.144 seconds
[2022-06-07 22:18:46,135] {processor.py:153} INFO - Started process (PID=2283) to work on /home/airflow/.local/lib/python3.7/site-packages/airflow/example_dags/example_python_operator.py
[2022-06-07 22:18:46,135] {processor.py:641} INFO - Processing file /home/airflow/.local/lib/python3.7/site-packages/airflow/example_dags/example_python_operator.py for tasks to queue
[2022-06-07 22:18:46,136] {logging_mixin.py:115} INFO - [2022-06-07 22:18:46,136] {dagbag.py:507} INFO - Filling up the DagBag from /home/airflow/.local/lib/python3.7/site-packages/airflow/example_dags/example_python_operator.py
[2022-06-07 22:18:46,149] {processor.py:651} INFO - DAG(s) dict_keys(['example_python_operator']) retrieved from /home/airflow/.local/lib/python3.7/site-packages/airflow/example_dags/example_python_operator.py
[2022-06-07 22:18:46,170] {logging_mixin.py:115} INFO - [2022-06-07 22:18:46,169] {dag.py:2379} INFO - Sync 1 DAGs
[2022-06-07 22:18:46,274] {logging_mixin.py:115} INFO - [2022-06-07 22:18:46,274] {dag.py:2931} INFO - Setting next_dagrun for example_python_operator to None, run_after=None
[2022-06-07 22:18:46,284] {processor.py:161} INFO - Processing /home/airflow/.local/lib/python3.7/site-packages/airflow/example_dags/example_python_operator.py took 0.151 seconds
[2022-06-07 22:19:16,373] {processor.py:153} INFO - Started process (PID=2341) to work on /home/airflow/.local/lib/python3.7/site-packages/airflow/example_dags/example_python_operator.py
[2022-06-07 22:19:16,373] {processor.py:641} INFO - Processing file /home/airflow/.local/lib/python3.7/site-packages/airflow/example_dags/example_python_operator.py for tasks to queue
[2022-06-07 22:19:16,374] {logging_mixin.py:115} INFO - [2022-06-07 22:19:16,374] {dagbag.py:507} INFO - Filling up the DagBag from /home/airflow/.local/lib/python3.7/site-packages/airflow/example_dags/example_python_operator.py
[2022-06-07 22:19:16,387] {processor.py:651} INFO - DAG(s) dict_keys(['example_python_operator']) retrieved from /home/airflow/.local/lib/python3.7/site-packages/airflow/example_dags/example_python_operator.py
[2022-06-07 22:19:16,407] {logging_mixin.py:115} INFO - [2022-06-07 22:19:16,407] {dag.py:2379} INFO - Sync 1 DAGs
[2022-06-07 22:19:16,507] {logging_mixin.py:115} INFO - [2022-06-07 22:19:16,507] {dag.py:2931} INFO - Setting next_dagrun for example_python_operator to None, run_after=None
[2022-06-07 22:19:16,517] {processor.py:161} INFO - Processing /home/airflow/.local/lib/python3.7/site-packages/airflow/example_dags/example_python_operator.py took 0.147 seconds
[2022-06-07 22:19:46,675] {processor.py:153} INFO - Started process (PID=2403) to work on /home/airflow/.local/lib/python3.7/site-packages/airflow/example_dags/example_python_operator.py
[2022-06-07 22:19:46,675] {processor.py:641} INFO - Processing file /home/airflow/.local/lib/python3.7/site-packages/airflow/example_dags/example_python_operator.py for tasks to queue
[2022-06-07 22:19:46,675] {logging_mixin.py:115} INFO - [2022-06-07 22:19:46,675] {dagbag.py:507} INFO - Filling up the DagBag from /home/airflow/.local/lib/python3.7/site-packages/airflow/example_dags/example_python_operator.py
[2022-06-07 22:19:46,687] {processor.py:651} INFO - DAG(s) dict_keys(['example_python_operator']) retrieved from /home/airflow/.local/lib/python3.7/site-packages/airflow/example_dags/example_python_operator.py
[2022-06-07 22:19:46,707] {logging_mixin.py:115} INFO - [2022-06-07 22:19:46,707] {dag.py:2379} INFO - Sync 1 DAGs
[2022-06-07 22:19:46,811] {logging_mixin.py:115} INFO - [2022-06-07 22:19:46,810] {dag.py:2931} INFO - Setting next_dagrun for example_python_operator to None, run_after=None
[2022-06-07 22:19:46,820] {processor.py:161} INFO - Processing /home/airflow/.local/lib/python3.7/site-packages/airflow/example_dags/example_python_operator.py took 0.148 seconds
[2022-06-07 22:20:17,620] {processor.py:153} INFO - Started process (PID=2468) to work on /home/airflow/.local/lib/python3.7/site-packages/airflow/example_dags/example_python_operator.py
[2022-06-07 22:20:17,620] {processor.py:641} INFO - Processing file /home/airflow/.local/lib/python3.7/site-packages/airflow/example_dags/example_python_operator.py for tasks to queue
[2022-06-07 22:20:17,620] {logging_mixin.py:115} INFO - [2022-06-07 22:20:17,620] {dagbag.py:507} INFO - Filling up the DagBag from /home/airflow/.local/lib/python3.7/site-packages/airflow/example_dags/example_python_operator.py
[2022-06-07 22:20:17,633] {processor.py:651} INFO - DAG(s) dict_keys(['example_python_operator']) retrieved from /home/airflow/.local/lib/python3.7/site-packages/airflow/example_dags/example_python_operator.py
[2022-06-07 22:20:17,655] {logging_mixin.py:115} INFO - [2022-06-07 22:20:17,655] {dag.py:2379} INFO - Sync 1 DAGs
[2022-06-07 22:20:17,762] {logging_mixin.py:115} INFO - [2022-06-07 22:20:17,762] {dag.py:2931} INFO - Setting next_dagrun for example_python_operator to None, run_after=None
[2022-06-07 22:20:17,773] {processor.py:161} INFO - Processing /home/airflow/.local/lib/python3.7/site-packages/airflow/example_dags/example_python_operator.py took 0.156 seconds
[2022-06-07 22:20:48,688] {processor.py:153} INFO - Started process (PID=2530) to work on /home/airflow/.local/lib/python3.7/site-packages/airflow/example_dags/example_python_operator.py
[2022-06-07 22:20:48,689] {processor.py:641} INFO - Processing file /home/airflow/.local/lib/python3.7/site-packages/airflow/example_dags/example_python_operator.py for tasks to queue
[2022-06-07 22:20:48,689] {logging_mixin.py:115} INFO - [2022-06-07 22:20:48,689] {dagbag.py:507} INFO - Filling up the DagBag from /home/airflow/.local/lib/python3.7/site-packages/airflow/example_dags/example_python_operator.py
[2022-06-07 22:20:48,701] {processor.py:651} INFO - DAG(s) dict_keys(['example_python_operator']) retrieved from /home/airflow/.local/lib/python3.7/site-packages/airflow/example_dags/example_python_operator.py
[2022-06-07 22:20:48,722] {logging_mixin.py:115} INFO - [2022-06-07 22:20:48,722] {dag.py:2379} INFO - Sync 1 DAGs
[2022-06-07 22:20:48,828] {logging_mixin.py:115} INFO - [2022-06-07 22:20:48,827] {dag.py:2931} INFO - Setting next_dagrun for example_python_operator to None, run_after=None
[2022-06-07 22:20:48,838] {processor.py:161} INFO - Processing /home/airflow/.local/lib/python3.7/site-packages/airflow/example_dags/example_python_operator.py took 0.152 seconds
[2022-06-07 22:21:18,927] {processor.py:153} INFO - Started process (PID=2583) to work on /home/airflow/.local/lib/python3.7/site-packages/airflow/example_dags/example_python_operator.py
[2022-06-07 22:21:18,928] {processor.py:641} INFO - Processing file /home/airflow/.local/lib/python3.7/site-packages/airflow/example_dags/example_python_operator.py for tasks to queue
[2022-06-07 22:21:18,928] {logging_mixin.py:115} INFO - [2022-06-07 22:21:18,928] {dagbag.py:507} INFO - Filling up the DagBag from /home/airflow/.local/lib/python3.7/site-packages/airflow/example_dags/example_python_operator.py
[2022-06-07 22:21:18,942] {processor.py:651} INFO - DAG(s) dict_keys(['example_python_operator']) retrieved from /home/airflow/.local/lib/python3.7/site-packages/airflow/example_dags/example_python_operator.py
[2022-06-07 22:21:18,963] {logging_mixin.py:115} INFO - [2022-06-07 22:21:18,962] {dag.py:2379} INFO - Sync 1 DAGs
[2022-06-07 22:21:19,066] {logging_mixin.py:115} INFO - [2022-06-07 22:21:19,066] {dag.py:2931} INFO - Setting next_dagrun for example_python_operator to None, run_after=None
[2022-06-07 22:21:19,077] {processor.py:161} INFO - Processing /home/airflow/.local/lib/python3.7/site-packages/airflow/example_dags/example_python_operator.py took 0.151 seconds
[2022-06-07 22:21:49,367] {processor.py:153} INFO - Started process (PID=2646) to work on /home/airflow/.local/lib/python3.7/site-packages/airflow/example_dags/example_python_operator.py
[2022-06-07 22:21:49,368] {processor.py:641} INFO - Processing file /home/airflow/.local/lib/python3.7/site-packages/airflow/example_dags/example_python_operator.py for tasks to queue
[2022-06-07 22:21:49,368] {logging_mixin.py:115} INFO - [2022-06-07 22:21:49,368] {dagbag.py:507} INFO - Filling up the DagBag from /home/airflow/.local/lib/python3.7/site-packages/airflow/example_dags/example_python_operator.py
[2022-06-07 22:21:49,381] {processor.py:651} INFO - DAG(s) dict_keys(['example_python_operator']) retrieved from /home/airflow/.local/lib/python3.7/site-packages/airflow/example_dags/example_python_operator.py
[2022-06-07 22:21:49,404] {logging_mixin.py:115} INFO - [2022-06-07 22:21:49,404] {dag.py:2379} INFO - Sync 1 DAGs
[2022-06-07 22:21:49,511] {logging_mixin.py:115} INFO - [2022-06-07 22:21:49,511] {dag.py:2931} INFO - Setting next_dagrun for example_python_operator to None, run_after=None
[2022-06-07 22:21:49,521] {processor.py:161} INFO - Processing /home/airflow/.local/lib/python3.7/site-packages/airflow/example_dags/example_python_operator.py took 0.155 seconds
[2022-06-07 22:22:20,351] {processor.py:153} INFO - Started process (PID=2708) to work on /home/airflow/.local/lib/python3.7/site-packages/airflow/example_dags/example_python_operator.py
[2022-06-07 22:22:20,352] {processor.py:641} INFO - Processing file /home/airflow/.local/lib/python3.7/site-packages/airflow/example_dags/example_python_operator.py for tasks to queue
[2022-06-07 22:22:20,352] {logging_mixin.py:115} INFO - [2022-06-07 22:22:20,352] {dagbag.py:507} INFO - Filling up the DagBag from /home/airflow/.local/lib/python3.7/site-packages/airflow/example_dags/example_python_operator.py
[2022-06-07 22:22:20,365] {processor.py:651} INFO - DAG(s) dict_keys(['example_python_operator']) retrieved from /home/airflow/.local/lib/python3.7/site-packages/airflow/example_dags/example_python_operator.py
[2022-06-07 22:22:20,386] {logging_mixin.py:115} INFO - [2022-06-07 22:22:20,386] {dag.py:2379} INFO - Sync 1 DAGs
[2022-06-07 22:22:20,494] {logging_mixin.py:115} INFO - [2022-06-07 22:22:20,494] {dag.py:2931} INFO - Setting next_dagrun for example_python_operator to None, run_after=None
[2022-06-07 22:22:20,505] {processor.py:161} INFO - Processing /home/airflow/.local/lib/python3.7/site-packages/airflow/example_dags/example_python_operator.py took 0.156 seconds
[2022-06-07 22:22:50,817] {processor.py:153} INFO - Started process (PID=2773) to work on /home/airflow/.local/lib/python3.7/site-packages/airflow/example_dags/example_python_operator.py
[2022-06-07 22:22:50,817] {processor.py:641} INFO - Processing file /home/airflow/.local/lib/python3.7/site-packages/airflow/example_dags/example_python_operator.py for tasks to queue
[2022-06-07 22:22:50,818] {logging_mixin.py:115} INFO - [2022-06-07 22:22:50,818] {dagbag.py:507} INFO - Filling up the DagBag from /home/airflow/.local/lib/python3.7/site-packages/airflow/example_dags/example_python_operator.py
[2022-06-07 22:22:50,837] {processor.py:651} INFO - DAG(s) dict_keys(['example_python_operator']) retrieved from /home/airflow/.local/lib/python3.7/site-packages/airflow/example_dags/example_python_operator.py
[2022-06-07 22:22:50,866] {logging_mixin.py:115} INFO - [2022-06-07 22:22:50,866] {dag.py:2379} INFO - Sync 1 DAGs
[2022-06-07 22:22:50,994] {logging_mixin.py:115} INFO - [2022-06-07 22:22:50,994] {dag.py:2931} INFO - Setting next_dagrun for example_python_operator to None, run_after=None
[2022-06-07 22:22:51,005] {processor.py:161} INFO - Processing /home/airflow/.local/lib/python3.7/site-packages/airflow/example_dags/example_python_operator.py took 0.192 seconds
[2022-06-07 22:23:21,899] {processor.py:153} INFO - Started process (PID=2826) to work on /home/airflow/.local/lib/python3.7/site-packages/airflow/example_dags/example_python_operator.py
[2022-06-07 22:23:21,900] {processor.py:641} INFO - Processing file /home/airflow/.local/lib/python3.7/site-packages/airflow/example_dags/example_python_operator.py for tasks to queue
[2022-06-07 22:23:21,900] {logging_mixin.py:115} INFO - [2022-06-07 22:23:21,900] {dagbag.py:507} INFO - Filling up the DagBag from /home/airflow/.local/lib/python3.7/site-packages/airflow/example_dags/example_python_operator.py
[2022-06-07 22:23:21,914] {processor.py:651} INFO - DAG(s) dict_keys(['example_python_operator']) retrieved from /home/airflow/.local/lib/python3.7/site-packages/airflow/example_dags/example_python_operator.py
[2022-06-07 22:23:21,937] {logging_mixin.py:115} INFO - [2022-06-07 22:23:21,937] {dag.py:2379} INFO - Sync 1 DAGs
[2022-06-07 22:23:22,053] {logging_mixin.py:115} INFO - [2022-06-07 22:23:22,053] {dag.py:2931} INFO - Setting next_dagrun for example_python_operator to None, run_after=None
[2022-06-07 22:23:22,064] {processor.py:161} INFO - Processing /home/airflow/.local/lib/python3.7/site-packages/airflow/example_dags/example_python_operator.py took 0.169 seconds
[2022-06-07 22:23:52,507] {processor.py:153} INFO - Started process (PID=2888) to work on /home/airflow/.local/lib/python3.7/site-packages/airflow/example_dags/example_python_operator.py
[2022-06-07 22:23:52,507] {processor.py:641} INFO - Processing file /home/airflow/.local/lib/python3.7/site-packages/airflow/example_dags/example_python_operator.py for tasks to queue
[2022-06-07 22:23:52,507] {logging_mixin.py:115} INFO - [2022-06-07 22:23:52,507] {dagbag.py:507} INFO - Filling up the DagBag from /home/airflow/.local/lib/python3.7/site-packages/airflow/example_dags/example_python_operator.py
[2022-06-07 22:23:52,520] {processor.py:651} INFO - DAG(s) dict_keys(['example_python_operator']) retrieved from /home/airflow/.local/lib/python3.7/site-packages/airflow/example_dags/example_python_operator.py
[2022-06-07 22:23:52,541] {logging_mixin.py:115} INFO - [2022-06-07 22:23:52,541] {dag.py:2379} INFO - Sync 1 DAGs
[2022-06-07 22:23:52,647] {logging_mixin.py:115} INFO - [2022-06-07 22:23:52,647] {dag.py:2931} INFO - Setting next_dagrun for example_python_operator to None, run_after=None
[2022-06-07 22:23:52,658] {processor.py:161} INFO - Processing /home/airflow/.local/lib/python3.7/site-packages/airflow/example_dags/example_python_operator.py took 0.154 seconds
[2022-06-07 22:24:22,727] {processor.py:153} INFO - Started process (PID=2950) to work on /home/airflow/.local/lib/python3.7/site-packages/airflow/example_dags/example_python_operator.py
[2022-06-07 22:24:22,730] {processor.py:641} INFO - Processing file /home/airflow/.local/lib/python3.7/site-packages/airflow/example_dags/example_python_operator.py for tasks to queue
[2022-06-07 22:24:22,730] {logging_mixin.py:115} INFO - [2022-06-07 22:24:22,730] {dagbag.py:507} INFO - Filling up the DagBag from /home/airflow/.local/lib/python3.7/site-packages/airflow/example_dags/example_python_operator.py
[2022-06-07 22:24:22,743] {processor.py:651} INFO - DAG(s) dict_keys(['example_python_operator']) retrieved from /home/airflow/.local/lib/python3.7/site-packages/airflow/example_dags/example_python_operator.py
[2022-06-07 22:24:22,763] {logging_mixin.py:115} INFO - [2022-06-07 22:24:22,763] {dag.py:2379} INFO - Sync 1 DAGs
[2022-06-07 22:24:22,864] {logging_mixin.py:115} INFO - [2022-06-07 22:24:22,864] {dag.py:2931} INFO - Setting next_dagrun for example_python_operator to None, run_after=None
[2022-06-07 22:24:22,875] {processor.py:161} INFO - Processing /home/airflow/.local/lib/python3.7/site-packages/airflow/example_dags/example_python_operator.py took 0.150 seconds
[2022-06-07 22:25:22,174] {processor.py:153} INFO - Started process (PID=56) to work on /home/airflow/.local/lib/python3.7/site-packages/airflow/example_dags/example_python_operator.py
[2022-06-07 22:25:22,177] {processor.py:641} INFO - Processing file /home/airflow/.local/lib/python3.7/site-packages/airflow/example_dags/example_python_operator.py for tasks to queue
[2022-06-07 22:25:22,177] {logging_mixin.py:115} INFO - [2022-06-07 22:25:22,177] {dagbag.py:507} INFO - Filling up the DagBag from /home/airflow/.local/lib/python3.7/site-packages/airflow/example_dags/example_python_operator.py
[2022-06-07 22:25:22,206] {processor.py:651} INFO - DAG(s) dict_keys(['example_python_operator']) retrieved from /home/airflow/.local/lib/python3.7/site-packages/airflow/example_dags/example_python_operator.py
[2022-06-07 22:25:22,240] {logging_mixin.py:115} INFO - [2022-06-07 22:25:22,240] {dag.py:2379} INFO - Sync 1 DAGs
[2022-06-07 22:25:22,273] {logging_mixin.py:115} INFO - [2022-06-07 22:25:22,273] {dag.py:2931} INFO - Setting next_dagrun for example_python_operator to None, run_after=None
[2022-06-07 22:25:22,294] {processor.py:161} INFO - Processing /home/airflow/.local/lib/python3.7/site-packages/airflow/example_dags/example_python_operator.py took 0.124 seconds
[2022-06-07 22:25:53,292] {processor.py:153} INFO - Started process (PID=118) to work on /home/airflow/.local/lib/python3.7/site-packages/airflow/example_dags/example_python_operator.py
[2022-06-07 22:25:53,293] {processor.py:641} INFO - Processing file /home/airflow/.local/lib/python3.7/site-packages/airflow/example_dags/example_python_operator.py for tasks to queue
[2022-06-07 22:25:53,294] {logging_mixin.py:115} INFO - [2022-06-07 22:25:53,294] {dagbag.py:507} INFO - Filling up the DagBag from /home/airflow/.local/lib/python3.7/site-packages/airflow/example_dags/example_python_operator.py
[2022-06-07 22:25:53,322] {processor.py:651} INFO - DAG(s) dict_keys(['example_python_operator']) retrieved from /home/airflow/.local/lib/python3.7/site-packages/airflow/example_dags/example_python_operator.py
[2022-06-07 22:25:53,340] {logging_mixin.py:115} INFO - [2022-06-07 22:25:53,340] {dag.py:2379} INFO - Sync 1 DAGs
[2022-06-07 22:25:53,355] {logging_mixin.py:115} INFO - [2022-06-07 22:25:53,355] {dag.py:2931} INFO - Setting next_dagrun for example_python_operator to None, run_after=None
[2022-06-07 22:25:53,365] {processor.py:161} INFO - Processing /home/airflow/.local/lib/python3.7/site-packages/airflow/example_dags/example_python_operator.py took 0.081 seconds
[2022-06-07 22:26:24,169] {processor.py:153} INFO - Started process (PID=181) to work on /home/airflow/.local/lib/python3.7/site-packages/airflow/example_dags/example_python_operator.py
[2022-06-07 22:26:24,169] {processor.py:641} INFO - Processing file /home/airflow/.local/lib/python3.7/site-packages/airflow/example_dags/example_python_operator.py for tasks to queue
[2022-06-07 22:26:24,170] {logging_mixin.py:115} INFO - [2022-06-07 22:26:24,170] {dagbag.py:507} INFO - Filling up the DagBag from /home/airflow/.local/lib/python3.7/site-packages/airflow/example_dags/example_python_operator.py
[2022-06-07 22:26:24,194] {processor.py:651} INFO - DAG(s) dict_keys(['example_python_operator']) retrieved from /home/airflow/.local/lib/python3.7/site-packages/airflow/example_dags/example_python_operator.py
[2022-06-07 22:26:24,211] {logging_mixin.py:115} INFO - [2022-06-07 22:26:24,211] {dag.py:2379} INFO - Sync 1 DAGs
[2022-06-07 22:26:24,227] {logging_mixin.py:115} INFO - [2022-06-07 22:26:24,227] {dag.py:2931} INFO - Setting next_dagrun for example_python_operator to None, run_after=None
[2022-06-07 22:26:24,240] {processor.py:161} INFO - Processing /home/airflow/.local/lib/python3.7/site-packages/airflow/example_dags/example_python_operator.py took 0.077 seconds
[2022-06-07 22:26:54,901] {processor.py:153} INFO - Started process (PID=241) to work on /home/airflow/.local/lib/python3.7/site-packages/airflow/example_dags/example_python_operator.py
[2022-06-07 22:26:54,901] {processor.py:641} INFO - Processing file /home/airflow/.local/lib/python3.7/site-packages/airflow/example_dags/example_python_operator.py for tasks to queue
[2022-06-07 22:26:54,902] {logging_mixin.py:115} INFO - [2022-06-07 22:26:54,901] {dagbag.py:507} INFO - Filling up the DagBag from /home/airflow/.local/lib/python3.7/site-packages/airflow/example_dags/example_python_operator.py
[2022-06-07 22:26:54,919] {processor.py:651} INFO - DAG(s) dict_keys(['example_python_operator']) retrieved from /home/airflow/.local/lib/python3.7/site-packages/airflow/example_dags/example_python_operator.py
[2022-06-07 22:26:54,938] {logging_mixin.py:115} INFO - [2022-06-07 22:26:54,938] {dag.py:2379} INFO - Sync 1 DAGs
[2022-06-07 22:26:54,958] {logging_mixin.py:115} INFO - [2022-06-07 22:26:54,958] {dag.py:2931} INFO - Setting next_dagrun for example_python_operator to None, run_after=None
[2022-06-07 22:26:54,972] {processor.py:161} INFO - Processing /home/airflow/.local/lib/python3.7/site-packages/airflow/example_dags/example_python_operator.py took 0.073 seconds
[2022-06-07 22:27:25,834] {processor.py:153} INFO - Started process (PID=297) to work on /home/airflow/.local/lib/python3.7/site-packages/airflow/example_dags/example_python_operator.py
[2022-06-07 22:27:25,834] {processor.py:641} INFO - Processing file /home/airflow/.local/lib/python3.7/site-packages/airflow/example_dags/example_python_operator.py for tasks to queue
[2022-06-07 22:27:25,835] {logging_mixin.py:115} INFO - [2022-06-07 22:27:25,835] {dagbag.py:507} INFO - Filling up the DagBag from /home/airflow/.local/lib/python3.7/site-packages/airflow/example_dags/example_python_operator.py
[2022-06-07 22:27:25,856] {processor.py:651} INFO - DAG(s) dict_keys(['example_python_operator']) retrieved from /home/airflow/.local/lib/python3.7/site-packages/airflow/example_dags/example_python_operator.py
[2022-06-07 22:27:25,874] {logging_mixin.py:115} INFO - [2022-06-07 22:27:25,874] {dag.py:2379} INFO - Sync 1 DAGs
[2022-06-07 22:27:25,891] {logging_mixin.py:115} INFO - [2022-06-07 22:27:25,891] {dag.py:2931} INFO - Setting next_dagrun for example_python_operator to None, run_after=None
[2022-06-07 22:27:25,903] {processor.py:161} INFO - Processing /home/airflow/.local/lib/python3.7/site-packages/airflow/example_dags/example_python_operator.py took 0.075 seconds
[2022-06-07 22:27:56,540] {processor.py:153} INFO - Started process (PID=359) to work on /home/airflow/.local/lib/python3.7/site-packages/airflow/example_dags/example_python_operator.py
[2022-06-07 22:27:56,541] {processor.py:641} INFO - Processing file /home/airflow/.local/lib/python3.7/site-packages/airflow/example_dags/example_python_operator.py for tasks to queue
[2022-06-07 22:27:56,542] {logging_mixin.py:115} INFO - [2022-06-07 22:27:56,542] {dagbag.py:507} INFO - Filling up the DagBag from /home/airflow/.local/lib/python3.7/site-packages/airflow/example_dags/example_python_operator.py
[2022-06-07 22:27:56,568] {processor.py:651} INFO - DAG(s) dict_keys(['example_python_operator']) retrieved from /home/airflow/.local/lib/python3.7/site-packages/airflow/example_dags/example_python_operator.py
[2022-06-07 22:27:56,586] {logging_mixin.py:115} INFO - [2022-06-07 22:27:56,586] {dag.py:2379} INFO - Sync 1 DAGs
[2022-06-07 22:27:56,603] {logging_mixin.py:115} INFO - [2022-06-07 22:27:56,603] {dag.py:2931} INFO - Setting next_dagrun for example_python_operator to None, run_after=None
[2022-06-07 22:27:56,614] {processor.py:161} INFO - Processing /home/airflow/.local/lib/python3.7/site-packages/airflow/example_dags/example_python_operator.py took 0.079 seconds
[2022-06-07 22:28:27,295] {processor.py:153} INFO - Started process (PID=421) to work on /home/airflow/.local/lib/python3.7/site-packages/airflow/example_dags/example_python_operator.py
[2022-06-07 22:28:27,295] {processor.py:641} INFO - Processing file /home/airflow/.local/lib/python3.7/site-packages/airflow/example_dags/example_python_operator.py for tasks to queue
[2022-06-07 22:28:27,295] {logging_mixin.py:115} INFO - [2022-06-07 22:28:27,295] {dagbag.py:507} INFO - Filling up the DagBag from /home/airflow/.local/lib/python3.7/site-packages/airflow/example_dags/example_python_operator.py
[2022-06-07 22:28:27,311] {processor.py:651} INFO - DAG(s) dict_keys(['example_python_operator']) retrieved from /home/airflow/.local/lib/python3.7/site-packages/airflow/example_dags/example_python_operator.py
[2022-06-07 22:28:27,329] {logging_mixin.py:115} INFO - [2022-06-07 22:28:27,329] {dag.py:2379} INFO - Sync 1 DAGs
[2022-06-07 22:28:27,346] {logging_mixin.py:115} INFO - [2022-06-07 22:28:27,346] {dag.py:2931} INFO - Setting next_dagrun for example_python_operator to None, run_after=None
[2022-06-07 22:28:27,356] {processor.py:161} INFO - Processing /home/airflow/.local/lib/python3.7/site-packages/airflow/example_dags/example_python_operator.py took 0.064 seconds
[2022-06-07 22:28:58,015] {processor.py:153} INFO - Started process (PID=474) to work on /home/airflow/.local/lib/python3.7/site-packages/airflow/example_dags/example_python_operator.py
[2022-06-07 22:28:58,016] {processor.py:641} INFO - Processing file /home/airflow/.local/lib/python3.7/site-packages/airflow/example_dags/example_python_operator.py for tasks to queue
[2022-06-07 22:28:58,017] {logging_mixin.py:115} INFO - [2022-06-07 22:28:58,017] {dagbag.py:507} INFO - Filling up the DagBag from /home/airflow/.local/lib/python3.7/site-packages/airflow/example_dags/example_python_operator.py
[2022-06-07 22:28:58,042] {processor.py:651} INFO - DAG(s) dict_keys(['example_python_operator']) retrieved from /home/airflow/.local/lib/python3.7/site-packages/airflow/example_dags/example_python_operator.py
[2022-06-07 22:28:58,059] {logging_mixin.py:115} INFO - [2022-06-07 22:28:58,059] {dag.py:2379} INFO - Sync 1 DAGs
[2022-06-07 22:28:58,076] {logging_mixin.py:115} INFO - [2022-06-07 22:28:58,076] {dag.py:2931} INFO - Setting next_dagrun for example_python_operator to None, run_after=None
[2022-06-07 22:28:58,087] {processor.py:161} INFO - Processing /home/airflow/.local/lib/python3.7/site-packages/airflow/example_dags/example_python_operator.py took 0.080 seconds
[2022-06-07 22:29:29,010] {processor.py:153} INFO - Started process (PID=536) to work on /home/airflow/.local/lib/python3.7/site-packages/airflow/example_dags/example_python_operator.py
[2022-06-07 22:29:29,011] {processor.py:641} INFO - Processing file /home/airflow/.local/lib/python3.7/site-packages/airflow/example_dags/example_python_operator.py for tasks to queue
[2022-06-07 22:29:29,012] {logging_mixin.py:115} INFO - [2022-06-07 22:29:29,011] {dagbag.py:507} INFO - Filling up the DagBag from /home/airflow/.local/lib/python3.7/site-packages/airflow/example_dags/example_python_operator.py
[2022-06-07 22:29:29,030] {processor.py:651} INFO - DAG(s) dict_keys(['example_python_operator']) retrieved from /home/airflow/.local/lib/python3.7/site-packages/airflow/example_dags/example_python_operator.py
[2022-06-07 22:29:29,048] {logging_mixin.py:115} INFO - [2022-06-07 22:29:29,048] {dag.py:2379} INFO - Sync 1 DAGs
[2022-06-07 22:29:29,064] {logging_mixin.py:115} INFO - [2022-06-07 22:29:29,064] {dag.py:2931} INFO - Setting next_dagrun for example_python_operator to None, run_after=None
[2022-06-07 22:29:29,075] {processor.py:161} INFO - Processing /home/airflow/.local/lib/python3.7/site-packages/airflow/example_dags/example_python_operator.py took 0.069 seconds
[2022-06-07 22:29:59,751] {processor.py:153} INFO - Started process (PID=597) to work on /home/airflow/.local/lib/python3.7/site-packages/airflow/example_dags/example_python_operator.py
[2022-06-07 22:29:59,752] {processor.py:641} INFO - Processing file /home/airflow/.local/lib/python3.7/site-packages/airflow/example_dags/example_python_operator.py for tasks to queue
[2022-06-07 22:29:59,752] {logging_mixin.py:115} INFO - [2022-06-07 22:29:59,752] {dagbag.py:507} INFO - Filling up the DagBag from /home/airflow/.local/lib/python3.7/site-packages/airflow/example_dags/example_python_operator.py
[2022-06-07 22:29:59,777] {processor.py:651} INFO - DAG(s) dict_keys(['example_python_operator']) retrieved from /home/airflow/.local/lib/python3.7/site-packages/airflow/example_dags/example_python_operator.py
[2022-06-07 22:29:59,795] {logging_mixin.py:115} INFO - [2022-06-07 22:29:59,795] {dag.py:2379} INFO - Sync 1 DAGs
[2022-06-07 22:29:59,811] {logging_mixin.py:115} INFO - [2022-06-07 22:29:59,811] {dag.py:2931} INFO - Setting next_dagrun for example_python_operator to None, run_after=None
[2022-06-07 22:29:59,822] {processor.py:161} INFO - Processing /home/airflow/.local/lib/python3.7/site-packages/airflow/example_dags/example_python_operator.py took 0.080 seconds
[2022-06-07 22:30:30,732] {processor.py:153} INFO - Started process (PID=659) to work on /home/airflow/.local/lib/python3.7/site-packages/airflow/example_dags/example_python_operator.py
[2022-06-07 22:30:30,733] {processor.py:641} INFO - Processing file /home/airflow/.local/lib/python3.7/site-packages/airflow/example_dags/example_python_operator.py for tasks to queue
[2022-06-07 22:30:30,734] {logging_mixin.py:115} INFO - [2022-06-07 22:30:30,734] {dagbag.py:507} INFO - Filling up the DagBag from /home/airflow/.local/lib/python3.7/site-packages/airflow/example_dags/example_python_operator.py
[2022-06-07 22:30:30,756] {processor.py:651} INFO - DAG(s) dict_keys(['example_python_operator']) retrieved from /home/airflow/.local/lib/python3.7/site-packages/airflow/example_dags/example_python_operator.py
[2022-06-07 22:30:30,774] {logging_mixin.py:115} INFO - [2022-06-07 22:30:30,774] {dag.py:2379} INFO - Sync 1 DAGs
[2022-06-07 22:30:30,791] {logging_mixin.py:115} INFO - [2022-06-07 22:30:30,791] {dag.py:2931} INFO - Setting next_dagrun for example_python_operator to None, run_after=None
[2022-06-07 22:30:30,804] {processor.py:161} INFO - Processing /home/airflow/.local/lib/python3.7/site-packages/airflow/example_dags/example_python_operator.py took 0.080 seconds
[2022-06-07 22:31:01,577] {processor.py:153} INFO - Started process (PID=712) to work on /home/airflow/.local/lib/python3.7/site-packages/airflow/example_dags/example_python_operator.py
[2022-06-07 22:31:01,579] {processor.py:641} INFO - Processing file /home/airflow/.local/lib/python3.7/site-packages/airflow/example_dags/example_python_operator.py for tasks to queue
[2022-06-07 22:31:01,580] {logging_mixin.py:115} INFO - [2022-06-07 22:31:01,580] {dagbag.py:507} INFO - Filling up the DagBag from /home/airflow/.local/lib/python3.7/site-packages/airflow/example_dags/example_python_operator.py
[2022-06-07 22:31:01,602] {processor.py:651} INFO - DAG(s) dict_keys(['example_python_operator']) retrieved from /home/airflow/.local/lib/python3.7/site-packages/airflow/example_dags/example_python_operator.py
[2022-06-07 22:31:01,621] {logging_mixin.py:115} INFO - [2022-06-07 22:31:01,621] {dag.py:2379} INFO - Sync 1 DAGs
[2022-06-07 22:31:01,639] {logging_mixin.py:115} INFO - [2022-06-07 22:31:01,639] {dag.py:2931} INFO - Setting next_dagrun for example_python_operator to None, run_after=None
[2022-06-07 22:31:01,650] {processor.py:161} INFO - Processing /home/airflow/.local/lib/python3.7/site-packages/airflow/example_dags/example_python_operator.py took 0.081 seconds
[2022-06-07 22:31:32,319] {processor.py:153} INFO - Started process (PID=774) to work on /home/airflow/.local/lib/python3.7/site-packages/airflow/example_dags/example_python_operator.py
[2022-06-07 22:31:32,320] {processor.py:641} INFO - Processing file /home/airflow/.local/lib/python3.7/site-packages/airflow/example_dags/example_python_operator.py for tasks to queue
[2022-06-07 22:31:32,321] {logging_mixin.py:115} INFO - [2022-06-07 22:31:32,320] {dagbag.py:507} INFO - Filling up the DagBag from /home/airflow/.local/lib/python3.7/site-packages/airflow/example_dags/example_python_operator.py
[2022-06-07 22:31:32,338] {processor.py:651} INFO - DAG(s) dict_keys(['example_python_operator']) retrieved from /home/airflow/.local/lib/python3.7/site-packages/airflow/example_dags/example_python_operator.py
[2022-06-07 22:31:32,361] {logging_mixin.py:115} INFO - [2022-06-07 22:31:32,361] {dag.py:2379} INFO - Sync 1 DAGs
[2022-06-07 22:31:32,384] {logging_mixin.py:115} INFO - [2022-06-07 22:31:32,384] {dag.py:2931} INFO - Setting next_dagrun for example_python_operator to None, run_after=None
[2022-06-07 22:31:32,395] {processor.py:161} INFO - Processing /home/airflow/.local/lib/python3.7/site-packages/airflow/example_dags/example_python_operator.py took 0.080 seconds
[2022-06-07 22:32:03,080] {processor.py:153} INFO - Started process (PID=836) to work on /home/airflow/.local/lib/python3.7/site-packages/airflow/example_dags/example_python_operator.py
[2022-06-07 22:32:03,080] {processor.py:641} INFO - Processing file /home/airflow/.local/lib/python3.7/site-packages/airflow/example_dags/example_python_operator.py for tasks to queue
[2022-06-07 22:32:03,081] {logging_mixin.py:115} INFO - [2022-06-07 22:32:03,081] {dagbag.py:507} INFO - Filling up the DagBag from /home/airflow/.local/lib/python3.7/site-packages/airflow/example_dags/example_python_operator.py
[2022-06-07 22:32:03,096] {processor.py:651} INFO - DAG(s) dict_keys(['example_python_operator']) retrieved from /home/airflow/.local/lib/python3.7/site-packages/airflow/example_dags/example_python_operator.py
[2022-06-07 22:32:03,116] {logging_mixin.py:115} INFO - [2022-06-07 22:32:03,116] {dag.py:2379} INFO - Sync 1 DAGs
[2022-06-07 22:32:03,134] {logging_mixin.py:115} INFO - [2022-06-07 22:32:03,134] {dag.py:2931} INFO - Setting next_dagrun for example_python_operator to None, run_after=None
[2022-06-07 22:32:03,146] {processor.py:161} INFO - Processing /home/airflow/.local/lib/python3.7/site-packages/airflow/example_dags/example_python_operator.py took 0.068 seconds
[2022-06-07 22:32:33,828] {processor.py:153} INFO - Started process (PID=898) to work on /home/airflow/.local/lib/python3.7/site-packages/airflow/example_dags/example_python_operator.py
[2022-06-07 22:32:33,829] {processor.py:641} INFO - Processing file /home/airflow/.local/lib/python3.7/site-packages/airflow/example_dags/example_python_operator.py for tasks to queue
[2022-06-07 22:32:33,831] {logging_mixin.py:115} INFO - [2022-06-07 22:32:33,830] {dagbag.py:507} INFO - Filling up the DagBag from /home/airflow/.local/lib/python3.7/site-packages/airflow/example_dags/example_python_operator.py
[2022-06-07 22:32:33,855] {processor.py:651} INFO - DAG(s) dict_keys(['example_python_operator']) retrieved from /home/airflow/.local/lib/python3.7/site-packages/airflow/example_dags/example_python_operator.py
[2022-06-07 22:32:33,873] {logging_mixin.py:115} INFO - [2022-06-07 22:32:33,873] {dag.py:2379} INFO - Sync 1 DAGs
[2022-06-07 22:32:33,889] {logging_mixin.py:115} INFO - [2022-06-07 22:32:33,889] {dag.py:2931} INFO - Setting next_dagrun for example_python_operator to None, run_after=None
[2022-06-07 22:32:33,900] {processor.py:161} INFO - Processing /home/airflow/.local/lib/python3.7/site-packages/airflow/example_dags/example_python_operator.py took 0.081 seconds
[2022-06-07 22:33:04,562] {processor.py:153} INFO - Started process (PID=951) to work on /home/airflow/.local/lib/python3.7/site-packages/airflow/example_dags/example_python_operator.py
[2022-06-07 22:33:04,563] {processor.py:641} INFO - Processing file /home/airflow/.local/lib/python3.7/site-packages/airflow/example_dags/example_python_operator.py for tasks to queue
[2022-06-07 22:33:04,563] {logging_mixin.py:115} INFO - [2022-06-07 22:33:04,563] {dagbag.py:507} INFO - Filling up the DagBag from /home/airflow/.local/lib/python3.7/site-packages/airflow/example_dags/example_python_operator.py
[2022-06-07 22:33:04,576] {processor.py:651} INFO - DAG(s) dict_keys(['example_python_operator']) retrieved from /home/airflow/.local/lib/python3.7/site-packages/airflow/example_dags/example_python_operator.py
[2022-06-07 22:33:04,597] {logging_mixin.py:115} INFO - [2022-06-07 22:33:04,596] {dag.py:2379} INFO - Sync 1 DAGs
[2022-06-07 22:33:04,618] {logging_mixin.py:115} INFO - [2022-06-07 22:33:04,618] {dag.py:2931} INFO - Setting next_dagrun for example_python_operator to None, run_after=None
[2022-06-07 22:33:04,632] {processor.py:161} INFO - Processing /home/airflow/.local/lib/python3.7/site-packages/airflow/example_dags/example_python_operator.py took 0.073 seconds
[2022-06-07 22:33:35,091] {processor.py:153} INFO - Started process (PID=1013) to work on /home/airflow/.local/lib/python3.7/site-packages/airflow/example_dags/example_python_operator.py
[2022-06-07 22:33:35,092] {processor.py:641} INFO - Processing file /home/airflow/.local/lib/python3.7/site-packages/airflow/example_dags/example_python_operator.py for tasks to queue
[2022-06-07 22:33:35,092] {logging_mixin.py:115} INFO - [2022-06-07 22:33:35,092] {dagbag.py:507} INFO - Filling up the DagBag from /home/airflow/.local/lib/python3.7/site-packages/airflow/example_dags/example_python_operator.py
[2022-06-07 22:33:35,107] {processor.py:651} INFO - DAG(s) dict_keys(['example_python_operator']) retrieved from /home/airflow/.local/lib/python3.7/site-packages/airflow/example_dags/example_python_operator.py
[2022-06-07 22:33:35,126] {logging_mixin.py:115} INFO - [2022-06-07 22:33:35,126] {dag.py:2379} INFO - Sync 1 DAGs
[2022-06-07 22:33:35,144] {logging_mixin.py:115} INFO - [2022-06-07 22:33:35,144] {dag.py:2931} INFO - Setting next_dagrun for example_python_operator to None, run_after=None
[2022-06-07 22:33:35,156] {processor.py:161} INFO - Processing /home/airflow/.local/lib/python3.7/site-packages/airflow/example_dags/example_python_operator.py took 0.068 seconds
[2022-06-07 22:34:05,750] {processor.py:153} INFO - Started process (PID=1075) to work on /home/airflow/.local/lib/python3.7/site-packages/airflow/example_dags/example_python_operator.py
[2022-06-07 22:34:05,751] {processor.py:641} INFO - Processing file /home/airflow/.local/lib/python3.7/site-packages/airflow/example_dags/example_python_operator.py for tasks to queue
[2022-06-07 22:34:05,751] {logging_mixin.py:115} INFO - [2022-06-07 22:34:05,751] {dagbag.py:507} INFO - Filling up the DagBag from /home/airflow/.local/lib/python3.7/site-packages/airflow/example_dags/example_python_operator.py
[2022-06-07 22:34:05,772] {processor.py:651} INFO - DAG(s) dict_keys(['example_python_operator']) retrieved from /home/airflow/.local/lib/python3.7/site-packages/airflow/example_dags/example_python_operator.py
[2022-06-07 22:34:05,790] {logging_mixin.py:115} INFO - [2022-06-07 22:34:05,790] {dag.py:2379} INFO - Sync 1 DAGs
[2022-06-07 22:34:05,807] {logging_mixin.py:115} INFO - [2022-06-07 22:34:05,807] {dag.py:2931} INFO - Setting next_dagrun for example_python_operator to None, run_after=None
[2022-06-07 22:34:05,817] {processor.py:161} INFO - Processing /home/airflow/.local/lib/python3.7/site-packages/airflow/example_dags/example_python_operator.py took 0.072 seconds
[2022-06-07 22:34:36,341] {processor.py:153} INFO - Started process (PID=1139) to work on /home/airflow/.local/lib/python3.7/site-packages/airflow/example_dags/example_python_operator.py
[2022-06-07 22:34:36,341] {processor.py:641} INFO - Processing file /home/airflow/.local/lib/python3.7/site-packages/airflow/example_dags/example_python_operator.py for tasks to queue
[2022-06-07 22:34:36,341] {logging_mixin.py:115} INFO - [2022-06-07 22:34:36,341] {dagbag.py:507} INFO - Filling up the DagBag from /home/airflow/.local/lib/python3.7/site-packages/airflow/example_dags/example_python_operator.py
[2022-06-07 22:34:36,356] {processor.py:651} INFO - DAG(s) dict_keys(['example_python_operator']) retrieved from /home/airflow/.local/lib/python3.7/site-packages/airflow/example_dags/example_python_operator.py
[2022-06-07 22:34:36,376] {logging_mixin.py:115} INFO - [2022-06-07 22:34:36,376] {dag.py:2379} INFO - Sync 1 DAGs
[2022-06-07 22:34:36,396] {logging_mixin.py:115} INFO - [2022-06-07 22:34:36,396] {dag.py:2931} INFO - Setting next_dagrun for example_python_operator to None, run_after=None
[2022-06-07 22:34:36,409] {processor.py:161} INFO - Processing /home/airflow/.local/lib/python3.7/site-packages/airflow/example_dags/example_python_operator.py took 0.071 seconds
[2022-06-07 22:35:07,284] {processor.py:153} INFO - Started process (PID=1193) to work on /home/airflow/.local/lib/python3.7/site-packages/airflow/example_dags/example_python_operator.py
[2022-06-07 22:35:07,285] {processor.py:641} INFO - Processing file /home/airflow/.local/lib/python3.7/site-packages/airflow/example_dags/example_python_operator.py for tasks to queue
[2022-06-07 22:35:07,286] {logging_mixin.py:115} INFO - [2022-06-07 22:35:07,286] {dagbag.py:507} INFO - Filling up the DagBag from /home/airflow/.local/lib/python3.7/site-packages/airflow/example_dags/example_python_operator.py
[2022-06-07 22:35:07,307] {processor.py:651} INFO - DAG(s) dict_keys(['example_python_operator']) retrieved from /home/airflow/.local/lib/python3.7/site-packages/airflow/example_dags/example_python_operator.py
[2022-06-07 22:35:07,326] {logging_mixin.py:115} INFO - [2022-06-07 22:35:07,326] {dag.py:2379} INFO - Sync 1 DAGs
[2022-06-07 22:35:07,342] {logging_mixin.py:115} INFO - [2022-06-07 22:35:07,342] {dag.py:2931} INFO - Setting next_dagrun for example_python_operator to None, run_after=None
[2022-06-07 22:35:07,355] {processor.py:161} INFO - Processing /home/airflow/.local/lib/python3.7/site-packages/airflow/example_dags/example_python_operator.py took 0.076 seconds
[2022-06-07 22:35:38,157] {processor.py:153} INFO - Started process (PID=1257) to work on /home/airflow/.local/lib/python3.7/site-packages/airflow/example_dags/example_python_operator.py
[2022-06-07 22:35:38,158] {processor.py:641} INFO - Processing file /home/airflow/.local/lib/python3.7/site-packages/airflow/example_dags/example_python_operator.py for tasks to queue
[2022-06-07 22:35:38,159] {logging_mixin.py:115} INFO - [2022-06-07 22:35:38,159] {dagbag.py:507} INFO - Filling up the DagBag from /home/airflow/.local/lib/python3.7/site-packages/airflow/example_dags/example_python_operator.py
[2022-06-07 22:35:38,182] {processor.py:651} INFO - DAG(s) dict_keys(['example_python_operator']) retrieved from /home/airflow/.local/lib/python3.7/site-packages/airflow/example_dags/example_python_operator.py
[2022-06-07 22:35:38,201] {logging_mixin.py:115} INFO - [2022-06-07 22:35:38,201] {dag.py:2379} INFO - Sync 1 DAGs
[2022-06-07 22:35:38,217] {logging_mixin.py:115} INFO - [2022-06-07 22:35:38,217] {dag.py:2931} INFO - Setting next_dagrun for example_python_operator to None, run_after=None
[2022-06-07 22:35:38,228] {processor.py:161} INFO - Processing /home/airflow/.local/lib/python3.7/site-packages/airflow/example_dags/example_python_operator.py took 0.080 seconds
[2022-06-07 22:36:08,813] {processor.py:153} INFO - Started process (PID=1320) to work on /home/airflow/.local/lib/python3.7/site-packages/airflow/example_dags/example_python_operator.py
[2022-06-07 22:36:08,813] {processor.py:641} INFO - Processing file /home/airflow/.local/lib/python3.7/site-packages/airflow/example_dags/example_python_operator.py for tasks to queue
[2022-06-07 22:36:08,814] {logging_mixin.py:115} INFO - [2022-06-07 22:36:08,814] {dagbag.py:507} INFO - Filling up the DagBag from /home/airflow/.local/lib/python3.7/site-packages/airflow/example_dags/example_python_operator.py
[2022-06-07 22:36:08,834] {processor.py:651} INFO - DAG(s) dict_keys(['example_python_operator']) retrieved from /home/airflow/.local/lib/python3.7/site-packages/airflow/example_dags/example_python_operator.py
[2022-06-07 22:36:08,853] {logging_mixin.py:115} INFO - [2022-06-07 22:36:08,853] {dag.py:2379} INFO - Sync 1 DAGs
[2022-06-07 22:36:08,869] {logging_mixin.py:115} INFO - [2022-06-07 22:36:08,868] {dag.py:2931} INFO - Setting next_dagrun for example_python_operator to None, run_after=None
[2022-06-07 22:36:08,884] {processor.py:161} INFO - Processing /home/airflow/.local/lib/python3.7/site-packages/airflow/example_dags/example_python_operator.py took 0.077 seconds
[2022-06-07 22:36:39,535] {processor.py:153} INFO - Started process (PID=1385) to work on /home/airflow/.local/lib/python3.7/site-packages/airflow/example_dags/example_python_operator.py
[2022-06-07 22:36:39,535] {processor.py:641} INFO - Processing file /home/airflow/.local/lib/python3.7/site-packages/airflow/example_dags/example_python_operator.py for tasks to queue
[2022-06-07 22:36:39,536] {logging_mixin.py:115} INFO - [2022-06-07 22:36:39,536] {dagbag.py:507} INFO - Filling up the DagBag from /home/airflow/.local/lib/python3.7/site-packages/airflow/example_dags/example_python_operator.py
[2022-06-07 22:36:39,548] {processor.py:651} INFO - DAG(s) dict_keys(['example_python_operator']) retrieved from /home/airflow/.local/lib/python3.7/site-packages/airflow/example_dags/example_python_operator.py
[2022-06-07 22:36:39,566] {logging_mixin.py:115} INFO - [2022-06-07 22:36:39,566] {dag.py:2379} INFO - Sync 1 DAGs
[2022-06-07 22:36:39,584] {logging_mixin.py:115} INFO - [2022-06-07 22:36:39,584] {dag.py:2931} INFO - Setting next_dagrun for example_python_operator to None, run_after=None
[2022-06-07 22:36:39,595] {processor.py:161} INFO - Processing /home/airflow/.local/lib/python3.7/site-packages/airflow/example_dags/example_python_operator.py took 0.063 seconds
[2022-06-07 22:37:10,535] {processor.py:153} INFO - Started process (PID=1440) to work on /home/airflow/.local/lib/python3.7/site-packages/airflow/example_dags/example_python_operator.py
[2022-06-07 22:37:10,536] {processor.py:641} INFO - Processing file /home/airflow/.local/lib/python3.7/site-packages/airflow/example_dags/example_python_operator.py for tasks to queue
[2022-06-07 22:37:10,536] {logging_mixin.py:115} INFO - [2022-06-07 22:37:10,536] {dagbag.py:507} INFO - Filling up the DagBag from /home/airflow/.local/lib/python3.7/site-packages/airflow/example_dags/example_python_operator.py
[2022-06-07 22:37:10,555] {processor.py:651} INFO - DAG(s) dict_keys(['example_python_operator']) retrieved from /home/airflow/.local/lib/python3.7/site-packages/airflow/example_dags/example_python_operator.py
[2022-06-07 22:37:10,581] {logging_mixin.py:115} INFO - [2022-06-07 22:37:10,581] {dag.py:2379} INFO - Sync 1 DAGs
[2022-06-07 22:37:10,609] {logging_mixin.py:115} INFO - [2022-06-07 22:37:10,609] {dag.py:2931} INFO - Setting next_dagrun for example_python_operator to None, run_after=None
[2022-06-07 22:37:10,626] {processor.py:161} INFO - Processing /home/airflow/.local/lib/python3.7/site-packages/airflow/example_dags/example_python_operator.py took 0.094 seconds
[2022-06-07 22:37:41,228] {processor.py:153} INFO - Started process (PID=1502) to work on /home/airflow/.local/lib/python3.7/site-packages/airflow/example_dags/example_python_operator.py
[2022-06-07 22:37:41,229] {processor.py:641} INFO - Processing file /home/airflow/.local/lib/python3.7/site-packages/airflow/example_dags/example_python_operator.py for tasks to queue
[2022-06-07 22:37:41,230] {logging_mixin.py:115} INFO - [2022-06-07 22:37:41,230] {dagbag.py:507} INFO - Filling up the DagBag from /home/airflow/.local/lib/python3.7/site-packages/airflow/example_dags/example_python_operator.py
[2022-06-07 22:37:41,250] {processor.py:651} INFO - DAG(s) dict_keys(['example_python_operator']) retrieved from /home/airflow/.local/lib/python3.7/site-packages/airflow/example_dags/example_python_operator.py
[2022-06-07 22:37:41,269] {logging_mixin.py:115} INFO - [2022-06-07 22:37:41,268] {dag.py:2379} INFO - Sync 1 DAGs
[2022-06-07 22:37:41,285] {logging_mixin.py:115} INFO - [2022-06-07 22:37:41,285] {dag.py:2931} INFO - Setting next_dagrun for example_python_operator to None, run_after=None
[2022-06-07 22:37:41,295] {processor.py:161} INFO - Processing /home/airflow/.local/lib/python3.7/site-packages/airflow/example_dags/example_python_operator.py took 0.073 seconds
[2022-06-07 22:38:12,185] {processor.py:153} INFO - Started process (PID=1565) to work on /home/airflow/.local/lib/python3.7/site-packages/airflow/example_dags/example_python_operator.py
[2022-06-07 22:38:12,185] {processor.py:641} INFO - Processing file /home/airflow/.local/lib/python3.7/site-packages/airflow/example_dags/example_python_operator.py for tasks to queue
[2022-06-07 22:38:12,186] {logging_mixin.py:115} INFO - [2022-06-07 22:38:12,186] {dagbag.py:507} INFO - Filling up the DagBag from /home/airflow/.local/lib/python3.7/site-packages/airflow/example_dags/example_python_operator.py
[2022-06-07 22:38:12,208] {processor.py:651} INFO - DAG(s) dict_keys(['example_python_operator']) retrieved from /home/airflow/.local/lib/python3.7/site-packages/airflow/example_dags/example_python_operator.py
[2022-06-07 22:38:12,228] {logging_mixin.py:115} INFO - [2022-06-07 22:38:12,228] {dag.py:2379} INFO - Sync 1 DAGs
[2022-06-07 22:38:12,245] {logging_mixin.py:115} INFO - [2022-06-07 22:38:12,245] {dag.py:2931} INFO - Setting next_dagrun for example_python_operator to None, run_after=None
[2022-06-07 22:38:12,273] {processor.py:161} INFO - Processing /home/airflow/.local/lib/python3.7/site-packages/airflow/example_dags/example_python_operator.py took 0.097 seconds
[2022-06-07 22:38:43,057] {processor.py:153} INFO - Started process (PID=1618) to work on /home/airflow/.local/lib/python3.7/site-packages/airflow/example_dags/example_python_operator.py
[2022-06-07 22:38:43,057] {processor.py:641} INFO - Processing file /home/airflow/.local/lib/python3.7/site-packages/airflow/example_dags/example_python_operator.py for tasks to queue
[2022-06-07 22:38:43,058] {logging_mixin.py:115} INFO - [2022-06-07 22:38:43,058] {dagbag.py:507} INFO - Filling up the DagBag from /home/airflow/.local/lib/python3.7/site-packages/airflow/example_dags/example_python_operator.py
[2022-06-07 22:38:43,078] {processor.py:651} INFO - DAG(s) dict_keys(['example_python_operator']) retrieved from /home/airflow/.local/lib/python3.7/site-packages/airflow/example_dags/example_python_operator.py
[2022-06-07 22:38:43,099] {logging_mixin.py:115} INFO - [2022-06-07 22:38:43,099] {dag.py:2379} INFO - Sync 1 DAGs
[2022-06-07 22:38:43,122] {logging_mixin.py:115} INFO - [2022-06-07 22:38:43,122] {dag.py:2931} INFO - Setting next_dagrun for example_python_operator to None, run_after=None
[2022-06-07 22:38:43,135] {processor.py:161} INFO - Processing /home/airflow/.local/lib/python3.7/site-packages/airflow/example_dags/example_python_operator.py took 0.085 seconds
[2022-06-07 22:39:13,815] {processor.py:153} INFO - Started process (PID=1680) to work on /home/airflow/.local/lib/python3.7/site-packages/airflow/example_dags/example_python_operator.py
[2022-06-07 22:39:13,816] {processor.py:641} INFO - Processing file /home/airflow/.local/lib/python3.7/site-packages/airflow/example_dags/example_python_operator.py for tasks to queue
[2022-06-07 22:39:13,817] {logging_mixin.py:115} INFO - [2022-06-07 22:39:13,816] {dagbag.py:507} INFO - Filling up the DagBag from /home/airflow/.local/lib/python3.7/site-packages/airflow/example_dags/example_python_operator.py
[2022-06-07 22:39:13,838] {processor.py:651} INFO - DAG(s) dict_keys(['example_python_operator']) retrieved from /home/airflow/.local/lib/python3.7/site-packages/airflow/example_dags/example_python_operator.py
[2022-06-07 22:39:13,856] {logging_mixin.py:115} INFO - [2022-06-07 22:39:13,856] {dag.py:2379} INFO - Sync 1 DAGs
[2022-06-07 22:39:13,873] {logging_mixin.py:115} INFO - [2022-06-07 22:39:13,873] {dag.py:2931} INFO - Setting next_dagrun for example_python_operator to None, run_after=None
[2022-06-07 22:39:13,884] {processor.py:161} INFO - Processing /home/airflow/.local/lib/python3.7/site-packages/airflow/example_dags/example_python_operator.py took 0.077 seconds
